[gd_scene load_steps=8 format=2]

[ext_resource path="res://assets/death.gdshader" type="Shader" id=1]
[ext_resource path="res://assets/fonts/Anarchy.tres" type="DynamicFont" id=2]
[ext_resource path="res://assets/sounds/Socapex_slow_squish.wav" type="AudioStream" id=3]
[ext_resource path="res://Death.gd" type="Script" id=4]

[sub_resource type="ShaderMaterial" id=9]
shader = ExtResource( 1 )
shader_param/strength = 0.0

[sub_resource type="Animation" id=10]
length = 0.001
tracks/0/type = "value"
tracks/0/path = NodePath("GameOver:visible")
tracks/0/interp = 1
tracks/0/loop_wrap = true
tracks/0/imported = false
tracks/0/enabled = true
tracks/0/keys = {
"times": PoolRealArray( 0 ),
"transitions": PoolRealArray( 1 ),
"update": 0,
"values": [ false ]
}
tracks/1/type = "value"
tracks/1/path = NodePath("Shader:visible")
tracks/1/interp = 1
tracks/1/loop_wrap = true
tracks/1/imported = false
tracks/1/enabled = true
tracks/1/keys = {
"times": PoolRealArray( 0 ),
"transitions": PoolRealArray( 1 ),
"update": 0,
"values": [ false ]
}
tracks/2/type = "value"
tracks/2/path = NodePath("AudioStreamPlayer:playing")
tracks/2/interp = 1
tracks/2/loop_wrap = true
tracks/2/imported = false
tracks/2/enabled = true
tracks/2/keys = {
"times": PoolRealArray( -0.1 ),
"transitions": PoolRealArray( 1 ),
"update": 0,
"values": [ false ]
}
tracks/3/type = "value"
tracks/3/path = NodePath(".:color")
tracks/3/interp = 1
tracks/3/loop_wrap = true
tracks/3/imported = false
tracks/3/enabled = true
tracks/3/keys = {
"times": PoolRealArray( 0 ),
"transitions": PoolRealArray( 1 ),
"update": 0,
"values": [ Color( 1, 0, 0, 1 ) ]
}

[sub_resource type="Animation" id=11]
resource_name = "death"
length = 5.0
tracks/0/type = "value"
tracks/0/path = NodePath("GameOver:visible")
tracks/0/interp = 1
tracks/0/loop_wrap = true
tracks/0/imported = false
tracks/0/enabled = true
tracks/0/keys = {
"times": PoolRealArray( 0, 1.5 ),
"transitions": PoolRealArray( 1, 1 ),
"update": 1,
"values": [ false, true ]
}
tracks/1/type = "value"
tracks/1/path = NodePath("Shader:visible")
tracks/1/interp = 1
tracks/1/loop_wrap = true
tracks/1/imported = false
tracks/1/enabled = true
tracks/1/keys = {
"times": PoolRealArray( 0, 1.5 ),
"transitions": PoolRealArray( 1, 1 ),
"update": 1,
"values": [ false, true ]
}
tracks/2/type = "value"
tracks/2/path = NodePath("AudioStreamPlayer:playing")
tracks/2/interp = 1
tracks/2/loop_wrap = true
tracks/2/imported = false
tracks/2/enabled = true
tracks/2/keys = {
"times": PoolRealArray( 0.9 ),
"transitions": PoolRealArray( 1 ),
"update": 1,
"values": [ true ]
}
tracks/3/type = "method"
tracks/3/path = NodePath(".")
tracks/3/interp = 1
tracks/3/loop_wrap = true
tracks/3/imported = false
tracks/3/enabled = true
tracks/3/keys = {
"times": PoolRealArray( 5 ),
"transitions": PoolRealArray( 1 ),
"values": [ {
"args": [  ],
"method": "finished"
} ]
}
tracks/4/type = "value"
tracks/4/path = NodePath(".:color")
tracks/4/interp = 1
tracks/4/loop_wrap = true
tracks/4/imported = false
tracks/4/enabled = true
tracks/4/keys = {
"times": PoolRealArray( 0, 1.5 ),
"transitions": PoolRealArray( 0, 1 ),
"update": 0,
"values": [ Color( 0, 0, 0, 1 ), Color( 1, 0, 0, 1 ) ]
}

[node name="Death" type="ColorRect"]
anchor_right = 1.0
anchor_bottom = 1.0
color = Color( 1, 0, 0, 1 )
script = ExtResource( 4 )

[node name="GameOver" type="Label" parent="."]
visible = false
anchor_right = 1.0
anchor_bottom = 1.0
custom_fonts/font = ExtResource( 2 )
text = "GAME OVER"
align = 1
valign = 1

[node name="Shader" type="ColorRect" parent="."]
visible = false
material = SubResource( 9 )
anchor_right = 1.0
anchor_bottom = 1.0
color = Color( 0, 0, 0, 1 )

[node name="AudioStreamPlayer" type="AudioStreamPlayer" parent="."]
stream = ExtResource( 3 )
bus = "Sound"

[node name="AnimationPlayer" type="AnimationPlayer" parent="."]
anims/RESET = SubResource( 10 )
anims/death = SubResource( 11 )
