[gd_scene load_steps=21 format=2]

[ext_resource path="res://assets/3d/Tiles.meshlib" type="MeshLibrary" id=1]
[ext_resource path="res://assets/3d/Walls.meshlib" type="MeshLibrary" id=2]
[ext_resource path="res://objects/Player.tscn" type="PackedScene" id=3]
[ext_resource path="res://objects/Torch.tscn" type="PackedScene" id=4]
[ext_resource path="res://objects/Checkpoint.tscn" type="PackedScene" id=5]
[ext_resource path="res://objects/WaypointGrid.tscn" type="PackedScene" id=6]
[ext_resource path="res://Level.gd" type="Script" id=7]
[ext_resource path="res://assets/noise.gdshader" type="Shader" id=8]
[ext_resource path="res://assets/fonts/AnarchySmall.tres" type="DynamicFont" id=9]
[ext_resource path="res://assets/3d/Scaff.meshlib" type="MeshLibrary" id=10]
[ext_resource path="res://objects/GridMapTest.gd" type="Script" id=11]
[ext_resource path="res://menu/IngameMenu.tscn" type="PackedScene" id=12]
[ext_resource path="res://menu/Settings.tscn" type="PackedScene" id=13]
[ext_resource path="res://objects/ObjectsGrid.gd" type="Script" id=14]
[ext_resource path="res://assets/3d/Objects.meshlib" type="MeshLibrary" id=15]
[ext_resource path="res://objects/Orb.tscn" type="PackedScene" id=16]

[sub_resource type="Environment" id=6]
background_mode = 1
fog_enabled = true
fog_color = Color( 0, 0, 0, 1 )
fog_sun_color = Color( 1, 1, 1, 1 )
fog_depth_begin = 0.0
fog_depth_end = 10.0
fog_transmit_curve = 0.225313
tonemap_mode = 3
auto_exposure_scale = 12.52
auto_exposure_min_luma = 10.56

[sub_resource type="ShaderMaterial" id=8]
shader = ExtResource( 8 )
shader_param/strength = 0.0

[sub_resource type="Animation" id=9]
length = 0.001
tracks/0/type = "value"
tracks/0/path = NodePath(".:color")
tracks/0/interp = 1
tracks/0/loop_wrap = true
tracks/0/imported = false
tracks/0/enabled = true
tracks/0/keys = {
"times": PoolRealArray( 0 ),
"transitions": PoolRealArray( 1 ),
"update": 0,
"values": [ Color( 1, 1, 1, 0 ) ]
}
tracks/1/type = "value"
tracks/1/path = NodePath("Label:custom_colors/font_color")
tracks/1/interp = 1
tracks/1/loop_wrap = true
tracks/1/imported = false
tracks/1/enabled = true
tracks/1/keys = {
"times": PoolRealArray( 0 ),
"transitions": PoolRealArray( 1 ),
"update": 0,
"values": [ Color( 1, 0, 0, 1 ) ]
}

[sub_resource type="Animation" id=10]
resource_name = "Win"
length = 5.0
tracks/0/type = "value"
tracks/0/path = NodePath(".:modulate")
tracks/0/interp = 1
tracks/0/loop_wrap = true
tracks/0/imported = false
tracks/0/enabled = true
tracks/0/keys = {
"times": PoolRealArray( 0, 2 ),
"transitions": PoolRealArray( -2, 1 ),
"update": 0,
"values": [ Color( 1, 1, 1, 0 ), Color( 1, 1, 1, 1 ) ]
}
tracks/1/type = "value"
tracks/1/path = NodePath("Label:custom_colors/font_color")
tracks/1/interp = 1
tracks/1/loop_wrap = true
tracks/1/imported = false
tracks/1/enabled = true
tracks/1/keys = {
"times": PoolRealArray( 0, 1, 2 ),
"transitions": PoolRealArray( 1, 1, 1 ),
"update": 0,
"values": [ Color( 1, 0, 0, 0 ), Color( 1, 0, 0, 0 ), Color( 1, 0, 0, 1 ) ]
}
tracks/2/type = "method"
tracks/2/path = NodePath("../..")
tracks/2/interp = 1
tracks/2/loop_wrap = true
tracks/2/imported = false
tracks/2/enabled = true
tracks/2/keys = {
"times": PoolRealArray( 5 ),
"transitions": PoolRealArray( 1 ),
"values": [ {
"args": [  ],
"method": "_won"
} ]
}

[node name="Level" type="Spatial"]
script = ExtResource( 7 )

[node name="Target_1" type="Position3D" parent="."]
transform = Transform( 1, 0, 0, 0, 1, 0, 0, 0, 1, -12, 1, -7.75 )

[node name="Target_2" type="Position3D" parent="."]
transform = Transform( 1, 0, 0, 0, 1, 0, 0, 0, 1, 7.5, 3, -3 )

[node name="Target_3" type="Position3D" parent="."]
transform = Transform( 1, 0, 0, 0, 1, 0, 0, 0, 1, -26, 3, 1.75 )

[node name="Orb" parent="." instance=ExtResource( 16 )]
transform = Transform( 1, 0, 0, 0, 1, 0, 0, 0, 1, -41.7263, 0, 20.1324 )

[node name="Orb2" parent="." instance=ExtResource( 16 )]
transform = Transform( 1, 0, 0, 0, 1, 0, 0, 0, 1, -59.1262, 0, 0 )

[node name="WorldEnvironment" type="WorldEnvironment" parent="." groups=["ENV"]]
environment = SubResource( 6 )

[node name="Roof" type="GridMap" parent="."]
transform = Transform( 1, 0, 0, 0, 1, 0, 0, 0, 1, 0.25, 0, 0.25 )
mesh_library = ExtResource( 1 )
cell_size = Vector3( 1, 1, 1 )
data = {
"cells": PoolIntArray( 196611, 0, 655369, 196612, 0, 655369, 196613, 0, 655369, 262134, 0, 655369, 262135, 0, 655369, 262136, 0, 655369, 262137, 0, 655369, 262138, 0, 655369, 262139, 0, 655369, 262140, 0, 655369, 262141, 0, 655369, 262142, 0, 655369, 262143, 0, 655369, 262145, 0, 2, 262146, 0, 2, 262147, 0, 2, 262148, 0, 2, 262149, 0, 2, 262150, 0, 2, 262151, 0, 2, 262152, 0, 2, 262153, 0, 2, 327647, 0, 1441794, 327648, 0, 1441794, 327649, 0, 1441794, 327650, 0, 1441794, 327651, 0, 1441794, 327652, 0, 2, 327653, 0, 2, 327654, 0, 2, 327655, 0, 2, 327656, 0, 2, 327657, 0, 2, 327658, 0, 2, 327659, 0, 2, 327660, 0, 2, 327661, 0, 2, 327662, 0, 2, 327663, 0, 2, 327664, 0, 2, 327665, 0, 2, 327666, 0, 2, 327667, 0, 2, 327668, 0, 2, 327669, 0, 2, 327670, 0, 2, 327671, 0, 2, 327672, 0, 2, 327673, 0, 2, 327680, 0, 655369, 327681, 0, 655369, 327682, 0, 655369, 327683, 0, 655369, 327684, 0, 655369, 327685, 0, 655369, 393214, 0, 655369, 393215, 0, 655369, 262134, 1, 655369, 262135, 1, 655369, 262136, 1, 655369, 262137, 1, 655369, 262138, 1, 655369, 262139, 1, 655369, 262140, 1, 655369, 262141, 1, 655369, 262142, 1, 655369, 262144, 1, 2, 262145, 1, 2, 262146, 1, 2, 262147, 1, 2, 262148, 1, 2, 262149, 1, 2, 262150, 1, 2, 327647, 1, 1441794, 327648, 1, 1441794, 327649, 1, 1441794, 327650, 1, 1441794, 327651, 1, 1441794, 327652, 1, 2, 327653, 1, 2, 327654, 1, 2, 327655, 1, 2, 327656, 1, 2, 327657, 1, 2, 327658, 1, 2, 327659, 1, 2, 327660, 1, 2, 327661, 1, 2, 327662, 1, 2, 327663, 1, 2, 327664, 1, 2, 327665, 1, 2, 327666, 1, 2, 327667, 1, 2, 327668, 1, 2, 327669, 1, 2, 327670, 1, 2, 327671, 1, 2, 327672, 1, 2, 327673, 1, 2, 327679, 1, 2, 327680, 1, 655369, 327681, 1, 655369, 327682, 1, 655369, 327683, 1, 655369, 327684, 1, 655369, 327685, 1, 655369, 393214, 1, 655369, 393215, 1, 655369, 262134, 2, 655369, 262135, 2, 655369, 262136, 2, 655369, 262137, 2, 655369, 262138, 2, 655369, 262139, 2, 655369, 262140, 2, 655369, 262141, 2, 655369, 262142, 2, 655369, 262144, 2, 2, 262145, 2, 2, 262146, 2, 2, 262147, 2, 2, 262148, 2, 2, 262149, 2, 2, 262150, 2, 2, 327647, 2, 1441794, 327648, 2, 1441794, 327649, 2, 1441794, 327650, 2, 1441794, 327651, 2, 1441794, 327652, 2, 2, 327653, 2, 2, 327654, 2, 2, 327655, 2, 2, 327656, 2, 2, 327657, 2, 2, 327658, 2, 2, 327659, 2, 2, 327660, 2, 2, 327661, 2, 2, 327662, 2, 2, 327663, 2, 2, 327664, 2, 2, 327665, 2, 2, 327666, 2, 2, 327667, 2, 2, 327668, 2, 2, 327669, 2, 2, 327670, 2, 2, 327671, 2, 2, 327672, 2, 2, 327673, 2, 2, 327679, 2, 2, 327680, 2, 655369, 327681, 2, 655369, 327682, 2, 655369, 327683, 2, 655369, 327684, 2, 655369, 327685, 2, 655369, 393214, 2, 655369, 393215, 2, 655369, 262134, 3, 655369, 262135, 3, 655369, 262136, 3, 655369, 262137, 3, 655369, 262138, 3, 655369, 262139, 3, 655369, 262140, 3, 655369, 262141, 3, 655369, 262142, 3, 655369, 262144, 3, 2, 262145, 3, 2, 262146, 3, 2, 262147, 3, 2, 262148, 3, 2, 262149, 3, 2, 262150, 3, 2, 327652, 3, 2, 327653, 3, 2, 327654, 3, 2, 327655, 3, 2, 327656, 3, 2, 327657, 3, 2, 327660, 3, 2, 327661, 3, 2, 327662, 3, 2, 327663, 3, 2, 327664, 3, 2, 327665, 3, 2, 327666, 3, 2, 327667, 3, 2, 327668, 3, 2, 327669, 3, 2, 327670, 3, 2, 327671, 3, 2, 327672, 3, 2, 327673, 3, 2, 327679, 3, 2, 327680, 3, 655369, 327681, 3, 655369, 327682, 3, 655369, 327683, 3, 655369, 327684, 3, 655369, 327685, 3, 655369, 393214, 3, 655369, 393215, 3, 655369, 262134, 4, 655369, 262135, 4, 655369, 262136, 4, 655369, 262137, 4, 655369, 262138, 4, 655369, 262139, 4, 655369, 262140, 4, 655369, 262141, 4, 655369, 262142, 4, 655369, 262144, 4, 2, 262145, 4, 2, 262146, 4, 2, 262147, 4, 2, 262148, 4, 2, 262149, 4, 2, 262150, 4, 2, 327652, 4, 2, 327653, 4, 2, 327654, 4, 2, 327655, 4, 2, 327656, 4, 2, 327657, 4, 2, 327660, 4, 2, 327661, 4, 2, 327662, 4, 2, 327663, 4, 2, 327664, 4, 2, 327665, 4, 2, 327666, 4, 2, 327667, 4, 2, 327668, 4, 2, 327669, 4, 2, 327670, 4, 2, 327671, 4, 2, 327672, 4, 2, 327673, 4, 2, 327679, 4, 2, 327680, 4, 655369, 327681, 4, 655369, 327682, 4, 655369, 327683, 4, 655369, 327684, 4, 655369, 327685, 4, 655369, 393214, 4, 655369, 393215, 4, 655369, 262134, 5, 655369, 262135, 5, 655369, 262136, 5, 655369, 262137, 5, 655369, 262138, 5, 655369, 262139, 5, 655369, 262140, 5, 655369, 262141, 5, 655369, 262142, 5, 655369, 262144, 5, 2, 262145, 5, 2, 262146, 5, 2, 262147, 5, 2, 262148, 5, 2, 262149, 5, 2, 262150, 5, 2, 327660, 5, 2, 327661, 5, 2, 327662, 5, 2, 327663, 5, 2, 327664, 5, 2, 327665, 5, 2, 327666, 5, 2, 327667, 5, 2, 327668, 5, 2, 327669, 5, 2, 327670, 5, 2, 327671, 5, 2, 327672, 5, 2, 327673, 5, 2, 327680, 5, 655369, 327681, 5, 655369, 327682, 5, 655369, 327683, 5, 655369, 327684, 5, 655369, 327685, 5, 655369, 393214, 5, 655369, 393215, 5, 655369, 262144, 6, 2, 262145, 6, 2, 262146, 6, 2, 262147, 6, 2, 262148, 6, 2, 262149, 6, 2, 262150, 6, 2, 327680, 6, 655369, 327681, 6, 655369, 327682, 6, 655369, 327683, 6, 655369, 262144, 7, 2, 262145, 7, 2, 262146, 7, 2, 262147, 7, 2, 262148, 7, 2, 262149, 7, 2, 262150, 7, 2, 327680, 7, 655369, 327681, 7, 655369, 327682, 7, 655369, 327683, 7, 655369, 262144, 8, 2, 262145, 8, 2, 262146, 8, 2, 262147, 8, 2, 262148, 8, 2, 262149, 8, 2, 262150, 8, 2, 327680, 8, 655369, 327681, 8, 655369, 327682, 8, 655369, 327683, 8, 655369, 327684, 8, 655369, 327685, 8, 655369, 393214, 8, 655369, 393215, 8, 655369, 262144, 9, 2, 262145, 9, 2, 262146, 9, 2, 262147, 9, 2, 262148, 9, 2, 262149, 9, 2, 262150, 9, 2, 262151, 9, 2, 327679, 9, 2, 327680, 9, 655369, 327681, 9, 655369, 327682, 9, 655369, 327683, 9, 655369, 327684, 9, 655369, 327685, 9, 655369, 393214, 9, 655369, 393215, 9, 655369, 262144, 10, 2, 262145, 10, 2, 262146, 10, 2, 262147, 10, 2, 262148, 10, 2, 262149, 10, 2, 262150, 10, 2, 262151, 10, 2, 327679, 10, 2, 327680, 10, 655369, 327681, 10, 655369, 327682, 10, 655369, 327683, 10, 655369, 327684, 10, 655369, 327685, 10, 655369, 393214, 10, 655369, 393215, 10, 655369, 262144, 11, 2, 262145, 11, 2, 262146, 11, 2, 262147, 11, 2, 262148, 11, 2, 262149, 11, 2, 262150, 11, 2, 262151, 11, 2, 327679, 11, 2, 327680, 11, 655369, 327681, 11, 655369, 327682, 11, 655369, 327683, 11, 655369, 327684, 11, 655369, 327685, 11, 655369, 393214, 11, 655369, 393215, 11, 655369, 262144, 12, 2, 262145, 12, 2, 262146, 12, 2, 262147, 12, 2, 262148, 12, 2, 262149, 12, 2, 262150, 12, 2, 262151, 12, 2, 327679, 12, 2, 327680, 12, 655369, 327681, 12, 655369, 327682, 12, 655369, 327683, 12, 655369, 327684, 12, 655369, 327685, 12, 655369, 393214, 12, 655369, 393215, 12, 655369, 327680, 13, 655369, 327681, 13, 655369, 327682, 13, 655369, 327683, 13, 655369, 327684, 13, 655369, 327685, 13, 655369, 393214, 13, 655369, 393215, 13, 655369, 327658, 65521, 2, 327659, 65521, 2, 327660, 65521, 2, 327661, 65521, 2, 327662, 65521, 2, 327663, 65521, 2, 327664, 65521, 2, 327665, 65521, 2, 327666, 65521, 2, 327667, 65521, 2, 327658, 65522, 2, 327659, 65522, 2, 327660, 65522, 2, 327661, 65522, 2, 327662, 65522, 2, 327663, 65522, 2, 327664, 65522, 2, 327665, 65522, 2, 327666, 65522, 2, 327667, 65522, 2, 327658, 65523, 2, 327659, 65523, 2, 327660, 65523, 2, 327661, 65523, 2, 327662, 65523, 2, 327663, 65523, 2, 327664, 65523, 2, 327665, 65523, 2, 327666, 65523, 2, 327667, 65523, 2, 327658, 65524, 2, 327659, 65524, 2, 327660, 65524, 2, 327661, 65524, 2, 327662, 65524, 2, 327663, 65524, 2, 327664, 65524, 2, 327665, 65524, 2, 327666, 65524, 2, 327667, 65524, 2, 327671, 65524, 2, 327672, 65524, 2, 327673, 65524, 2, 327658, 65525, 2, 327659, 65525, 2, 327660, 65525, 2, 327661, 65525, 2, 327664, 65525, 2, 327665, 65525, 2, 327666, 65525, 2, 327667, 65525, 2, 327668, 65525, 2, 327669, 65525, 2, 327670, 65525, 2, 327671, 65525, 2, 327672, 65525, 2, 327673, 65525, 2, 327658, 65526, 2, 327659, 65526, 2, 327660, 65526, 2, 327661, 65526, 2, 327664, 65526, 2, 327665, 65526, 2, 327666, 65526, 2, 327667, 65526, 2, 327668, 65526, 2, 327669, 65526, 2, 327670, 65526, 2, 327671, 65526, 2, 327672, 65526, 2, 327673, 65526, 2, 327664, 65527, 2, 327665, 65527, 2, 327666, 65527, 2, 327667, 65527, 2, 327668, 65527, 2, 327669, 65527, 2, 327670, 65527, 2, 327671, 65527, 2, 327672, 65527, 2, 327673, 65527, 2, 196608, 65528, 655369, 196609, 65528, 655369, 196610, 65528, 655369, 196611, 65528, 655369, 196612, 65528, 655369, 196613, 65528, 655369, 262134, 65528, 655369, 262135, 65528, 655369, 262136, 65528, 655369, 262137, 65528, 655369, 262138, 65528, 655369, 262139, 65528, 655369, 262140, 65528, 655369, 262141, 65528, 655369, 262142, 65528, 655369, 262143, 65528, 655369, 327664, 65528, 2, 327665, 65528, 2, 327666, 65528, 2, 327667, 65528, 2, 327668, 65528, 2, 327669, 65528, 2, 327670, 65528, 2, 327671, 65528, 2, 327672, 65528, 2, 327673, 65528, 2, 196608, 65529, 655369, 196609, 65529, 655369, 196610, 65529, 655369, 196611, 65529, 655369, 196612, 65529, 655369, 196613, 65529, 655369, 262134, 65529, 655369, 262135, 65529, 655369, 262136, 65529, 655369, 262137, 65529, 655369, 262138, 65529, 655369, 262139, 65529, 655369, 262140, 65529, 655369, 262141, 65529, 655369, 262142, 65529, 655369, 262143, 65529, 655369, 262145, 65529, 2, 262146, 65529, 2, 262147, 65529, 2, 262148, 65529, 2, 327664, 65529, 2, 327665, 65529, 2, 327666, 65529, 2, 327667, 65529, 2, 327668, 65529, 2, 327669, 65529, 2, 327670, 65529, 2, 327671, 65529, 2, 327672, 65529, 2, 327673, 65529, 2, 196608, 65530, 655369, 196609, 65530, 655369, 196610, 65530, 655369, 196611, 65530, 655369, 196612, 65530, 655369, 196613, 65530, 655369, 262134, 65530, 655369, 262135, 65530, 655369, 262136, 65530, 655369, 262137, 65530, 655369, 262138, 65530, 655369, 262139, 65530, 655369, 262140, 65530, 655369, 262141, 65530, 655369, 262142, 65530, 655369, 262143, 65530, 655369, 262145, 65530, 2, 262146, 65530, 2, 262147, 65530, 2, 262148, 65530, 2, 262149, 65530, 2, 262150, 65530, 2, 262151, 65530, 2, 262152, 65530, 2, 262153, 65530, 2, 327664, 65530, 2, 327665, 65530, 2, 327666, 65530, 2, 327667, 65530, 2, 327668, 65530, 2, 327669, 65530, 2, 327670, 65530, 2, 327671, 65530, 2, 327672, 65530, 2, 327673, 65530, 2, 196608, 65531, 655369, 196609, 65531, 655369, 196610, 65531, 655369, 196611, 65531, 655369, 196612, 65531, 655369, 196613, 65531, 655369, 262134, 65531, 655369, 262135, 65531, 655369, 262136, 65531, 655369, 262137, 65531, 655369, 262138, 65531, 655369, 262139, 65531, 655369, 262140, 65531, 655369, 262141, 65531, 655369, 262142, 65531, 655369, 262143, 65531, 655369, 262145, 65531, 2, 262146, 65531, 2, 262147, 65531, 2, 262148, 65531, 2, 262149, 65531, 2, 262150, 65531, 2, 262151, 65531, 2, 262152, 65531, 2, 262153, 65531, 2, 327664, 65531, 2, 327665, 65531, 2, 327666, 65531, 2, 327667, 65531, 2, 327668, 65531, 2, 327669, 65531, 2, 327670, 65531, 2, 327671, 65531, 2, 327672, 65531, 2, 327673, 65531, 2, 196608, 65532, 655369, 196609, 65532, 655369, 196610, 65532, 655369, 196611, 65532, 655369, 196612, 65532, 655369, 196613, 65532, 655369, 262134, 65532, 655369, 262135, 65532, 655369, 262136, 65532, 655369, 262137, 65532, 655369, 262138, 65532, 655369, 262139, 65532, 655369, 262140, 65532, 655369, 262141, 65532, 655369, 262142, 65532, 655369, 262143, 65532, 655369, 262145, 65532, 2, 262146, 65532, 2, 262147, 65532, 2, 262148, 65532, 2, 262149, 65532, 2, 262150, 65532, 2, 262151, 65532, 2, 262152, 65532, 2, 262153, 65532, 2, 327664, 65532, 2, 327665, 65532, 2, 327666, 65532, 2, 327667, 65532, 2, 327668, 65532, 2, 327669, 65532, 2, 327670, 65532, 2, 327671, 65532, 2, 327672, 65532, 2, 327673, 65532, 2, 196608, 65533, 655369, 196609, 65533, 655369, 196610, 65533, 655369, 196611, 65533, 655369, 196612, 65533, 655369, 196613, 65533, 655369, 262134, 65533, 655369, 262135, 65533, 655369, 262136, 65533, 655369, 262137, 65533, 655369, 262138, 65533, 655369, 262139, 65533, 655369, 262140, 65533, 655369, 262141, 65533, 655369, 262142, 65533, 655369, 262143, 65533, 655369, 262145, 65533, 2, 262146, 65533, 2, 262147, 65533, 2, 262148, 65533, 2, 262149, 65533, 2, 262150, 65533, 2, 262151, 65533, 2, 262152, 65533, 2, 262153, 65533, 2, 327647, 65533, 1441794, 327648, 65533, 1441794, 327664, 65533, 2, 327665, 65533, 2, 327666, 65533, 2, 327667, 65533, 2, 327668, 65533, 2, 327669, 65533, 2, 327670, 65533, 2, 327671, 65533, 2, 327672, 65533, 2, 327673, 65533, 2, 196608, 65534, 655369, 196609, 65534, 655369, 196610, 65534, 655369, 196611, 65534, 655369, 196612, 65534, 655369, 196613, 65534, 655369, 262134, 65534, 655369, 262135, 65534, 655369, 262136, 65534, 655369, 262137, 65534, 655369, 262138, 65534, 655369, 262139, 65534, 655369, 262140, 65534, 655369, 262141, 65534, 655369, 262142, 65534, 655369, 262143, 65534, 655369, 262145, 65534, 2, 262146, 65534, 2, 262147, 65534, 2, 262148, 65534, 2, 262149, 65534, 2, 262150, 65534, 2, 262151, 65534, 2, 262152, 65534, 2, 262153, 65534, 2, 327647, 65534, 1441794, 327648, 65534, 1441794, 327652, 65534, 2, 327653, 65534, 2, 327654, 65534, 2, 327655, 65534, 2, 327656, 65534, 2, 327657, 65534, 2, 327664, 65534, 2, 327665, 65534, 2, 327666, 65534, 2, 327667, 65534, 2, 327668, 65534, 2, 327669, 65534, 2, 327670, 65534, 2, 327671, 65534, 2, 327672, 65534, 2, 327673, 65534, 2, 196609, 65535, 655369, 196610, 65535, 655369, 196611, 65535, 655369, 196612, 65535, 655369, 196613, 65535, 655369, 262134, 65535, 655369, 262135, 65535, 655369, 262136, 65535, 655369, 262137, 65535, 655369, 262138, 65535, 655369, 262139, 65535, 655369, 262140, 65535, 655369, 262141, 65535, 655369, 262142, 65535, 655369, 262143, 65535, 655369, 262145, 65535, 2, 262146, 65535, 2, 262147, 65535, 2, 262148, 65535, 2, 262149, 65535, 2, 262150, 65535, 2, 262151, 65535, 2, 262152, 65535, 2, 262153, 65535, 2, 327647, 65535, 1441794, 327648, 65535, 1441794, 327652, 65535, 2, 327653, 65535, 2, 327654, 65535, 2, 327655, 65535, 2, 327656, 65535, 2, 327657, 65535, 2, 327664, 65535, 2, 327665, 65535, 2, 327666, 65535, 2, 327667, 65535, 2, 327668, 65535, 2, 327669, 65535, 2, 327670, 65535, 2, 327671, 65535, 2, 327672, 65535, 2, 327673, 65535, 2 )
}
script = ExtResource( 11 )
__meta__ = {
"_editor_clip_": 0,
"_editor_floor_": Vector3( 0, 4, 0 )
}

[node name="UG" type="GridMap" parent="."]
mesh_library = ExtResource( 2 )
cell_size = Vector3( 0.5, 1, 0.5 )
collision_mask = 0
data = {
"cells": PoolIntArray( -131054, 0, 1441797, -65592, 0, 1048578, -65580, 0, 1048578, -65572, 0, 1048579, -65570, 0, 655360, -65568, 0, 655372, -65564, 0, 655374, -65562, 0, 655360, -65560, 0, 655372, -65556, 0, 655374, -65554, 0, 655360, -65552, 0, 655372, -65548, 0, 655374, -65546, 0, 655360, -65544, 0, 655372, -65540, 0, 655374, -65538, 0, 655360, -131070, 1, 1048585, -131060, 1, 1048585, -65576, 2, 1048587, -65570, 2, 1441794, -65562, 2, 1441794, -65554, 2, 1441794, -65546, 2, 1441794, -65538, 2, 1048578, -131070, 4, 10, -131060, 4, 655370, -131058, 4, 2, -131054, 4, 1441795, -65592, 4, 1048578, -65576, 4, 1048578, -65572, 4, 1048578, -65580, 5, 1048585, -131070, 6, 1048578, -131060, 6, 1048578, -65570, 6, 655363, -65566, 6, 655362, -65562, 6, 655367, -65558, 6, 655362, -65554, 6, 655367, -65550, 6, 655368, -65546, 6, 655367, -65542, 6, 655362, -65538, 6, 1441799, -131068, 8, 655362, -131066, 8, 10, -65592, 8, 1048578, -65578, 8, 655370, -65576, 8, 1441799, -65572, 8, 655363, -65568, 8, 1441795, -65553, 8, 1048576, -131060, 10, 1048578, -65592, 10, 655362, -65588, 10, 2, -65584, 10, 2, -65580, 10, 1441795, -131070, 11, 1048585, -65564, 11, 1048576, -65558, 11, 1048576, -65548, 11, 1048577, -65542, 11, 1048576, -65538, 11, 1441801, -65576, 12, 655363, -65572, 12, 655362, -65568, 12, 3, -131068, 14, 655362, -131064, 14, 655362, -131060, 14, 1441795, -65553, 14, 1048576, -131070, 16, 1048578, -65568, 16, 655363, -65564, 16, 655362, -65560, 16, 655362, -65556, 16, 655362, -65555, 16, 655362, -65551, 16, 655362, -65547, 16, 655362, -65544, 16, 0, -65542, 16, 655375, -65540, 16, 0, -65538, 16, 1441799, -65542, 17, 2, -131070, 20, 1441794, -65538, 20, 1441794, -131072, 22, 655362, -131072, 65504, 3, -65564, 65504, 1048579, -65560, 65504, 2, -65556, 65504, 2, -65552, 65504, 2, -65548, 65504, 2, -65544, 65504, 2, -65540, 65504, 2, -65550, 65505, 1048576, -131072, 65508, 1441794, -65580, 65508, 1048579, -65576, 65508, 2, -65572, 65508, 2, -65568, 65508, 655362, -65564, 65508, 1441799, -65550, 65509, 1048576, -65560, 65510, 1048576, -65554, 65510, 1048576, -65548, 65510, 655362, -65544, 65510, 655362, -65542, 65510, 1441792, -65550, 65511, 1441794, -131072, 65512, 1441794, -65580, 65512, 1048578, -65576, 65512, 1048579, -65572, 65512, 2, -65568, 65512, 3, -65564, 65512, 1441794, -65560, 65514, 1048576, -65554, 65514, 1048577, -65564, 65515, 1441794, -65550, 65515, 1048578, -131072, 65516, 1441794, -65588, 65516, 1048579, -65584, 65516, 2, -65580, 65516, 1441795, -65576, 65516, 655363, -65574, 65516, 11, -65548, 65516, 2, -65544, 65516, 655362, -65542, 65516, 1441792, -131072, 65518, 0, -131070, 65518, 1441795, -131068, 65518, 655362, -131064, 65518, 655362, -131060, 65518, 3, -65564, 65519, 655363, -65560, 65519, 655362, -65555, 65519, 9, -65550, 65519, 1441795, -65588, 65520, 655363, -65584, 65520, 3, -65572, 65520, 1048579, -65570, 65520, 10, -131070, 65521, 1048585, -131060, 65522, 1048578, -65580, 65522, 1048586, -65576, 65522, 1048586, -65544, 65522, 1048577, -65539, 65522, 1048576, -131068, 65524, 655362, -131066, 65524, 10, -65588, 65524, 1048579, -65584, 65524, 1441795, -65580, 65524, 655363, -65576, 65524, 1441795, -65572, 65524, 655363, -65570, 65524, 10, -65564, 65524, 1048579, -65560, 65524, 655362, -65556, 65524, 655362, -65552, 65524, 3, -131070, 65526, 1048578, -131060, 65526, 1048578, -65564, 65526, 1441803, -65548, 65526, 1048587, -65544, 65527, 1048576, -65539, 65527, 1048576, -131070, 65528, 10, -131060, 65528, 655370, -131058, 65528, 2, -131054, 65528, 3, -65588, 65528, 1048578, -65584, 65528, 1048579, -65580, 65528, 655362, -65576, 65528, 3, -65572, 65528, 1048579, -65568, 65528, 3, -65552, 65528, 1441794, -65548, 65528, 1048578, -65576, 65530, 1441803, -65572, 65530, 1441802, -65568, 65530, 1441802, -131070, 65531, 1048585, -131060, 65531, 1048585, -131054, 65532, 1441797, -65592, 65532, 1048579, -65588, 65532, 1441795, -65584, 65532, 655363, -65580, 65532, 3, -65562, 65532, 655371, -65560, 65532, 655362, -65556, 65532, 655362, -65552, 65532, 1441795, -65548, 65532, 655363, -65544, 65532, 655362, -65540, 65532, 2, -65538, 65532, 0, -131068, 65534, 655362, -131064, 65534, 2, -131060, 65534, 2, -131058, 65534, 0 )
}
__meta__ = {
"_editor_clip_": 0,
"_editor_floor_": Vector3( 0, -2, 0 )
}

[node name="FloorUG1" type="GridMap" parent="UG"]
transform = Transform( 1, 0, 0, 0, 1, 0, 0, 0, 1, 0.25, 0, 0.25 )
mesh_library = ExtResource( 1 )
cell_size = Vector3( 1, 1, 1 )
data = {
"cells": PoolIntArray( -131072, 0, 1048578, -131071, 0, 1048578, -131070, 0, 1048578, -131069, 0, 1048578, -131068, 0, 1048578, -131067, 0, 1048578, -131066, 0, 1048578, -131065, 0, 1048578, -131064, 0, 1048578, -65564, 0, 1048578, -65563, 0, 1048578, -65562, 0, 1048578, -65561, 0, 1048578, -65560, 0, 1048578, -65559, 0, 1048578, -65558, 0, 1048578, -65557, 0, 1048578, -65556, 0, 1048578, -65555, 0, 1048578, -65554, 0, 1048578, -65553, 0, 1048578, -65552, 0, 1048578, -65551, 0, 1048578, -65550, 0, 1048578, -65549, 0, 1048578, -65548, 0, 1048578, -65547, 0, 1048578, -65546, 0, 1048578, -65545, 0, 1048578, -65544, 0, 1048578, -65543, 0, 1048578, -65542, 0, 1048578, -65541, 0, 1048578, -65540, 0, 1048578, -65539, 0, 1048578, -65538, 0, 1048578, -65537, 0, 1048578, -131072, 1, 1048578, -131071, 1, 1048578, -131070, 1, 1048578, -131069, 1, 1048578, -131068, 1, 1048578, -131067, 1, 1048578, -131066, 1, 1048578, -131065, 1, 1048578, -131064, 1, 1048578, -65564, 1, 1048578, -65563, 1, 1048578, -65562, 1, 1048578, -65561, 1, 1048578, -65560, 1, 1048578, -65559, 1, 1048578, -65558, 1, 1048578, -65557, 1, 1048578, -65556, 1, 1048578, -65555, 1, 1048578, -65554, 1, 1048578, -65553, 1, 1048578, -65552, 1, 1048578, -65551, 1, 1048578, -65550, 1, 1048578, -65549, 1, 1048578, -65548, 1, 1048578, -65547, 1, 1048578, -65546, 1, 1048578, -65545, 1, 1048578, -65544, 1, 1048578, -65543, 1, 1048578, -65542, 1, 1048578, -65541, 1, 1048578, -65540, 1, 1048578, -65539, 1, 1048578, -65538, 1, 1048578, -65537, 1, 1048578, -131072, 2, 1048578, -131071, 2, 1048578, -131070, 2, 1048578, -131069, 2, 1048578, -131068, 2, 1048578, -131067, 2, 1048578, -65564, 2, 1048578, -65563, 2, 1048578, -65562, 2, 1048578, -65561, 2, 1048578, -65560, 2, 1048578, -65559, 2, 1048578, -65558, 2, 1048578, -65557, 2, 1048578, -65556, 2, 1048578, -65555, 2, 1048578, -65554, 2, 1048578, -65553, 2, 1048578, -65552, 2, 1048578, -65551, 2, 1048578, -65550, 2, 1048578, -65549, 2, 1048578, -65548, 2, 1048578, -65547, 2, 1048578, -65546, 2, 1048578, -65545, 2, 1048578, -65544, 2, 1048578, -65543, 2, 1048578, -65542, 2, 1048578, -65541, 2, 1048578, -65540, 2, 1048578, -65539, 2, 1048578, -65538, 2, 1048578, -65537, 2, 1048578, -131072, 3, 1048578, -131071, 3, 1048578, -131070, 3, 1048578, -131069, 3, 1048578, -131068, 3, 1048578, -131067, 3, 1048578, -65564, 3, 1048578, -65563, 3, 1048578, -65562, 3, 1048578, -65561, 3, 1048578, -65560, 3, 1048578, -65559, 3, 1048578, -65558, 3, 1048578, -65557, 3, 1048578, -65556, 3, 1048578, -65555, 3, 1048578, -65554, 3, 1048578, -65553, 3, 1048578, -65552, 3, 1048578, -65551, 3, 1048578, -65550, 3, 1048578, -65549, 3, 1048578, -65548, 3, 1048578, -65547, 3, 1048578, -65546, 3, 1048578, -65545, 3, 1048578, -65544, 3, 1048578, -65543, 3, 1048578, -65542, 3, 1048578, -65541, 3, 1048578, -65540, 3, 1048578, -65539, 3, 1048578, -65538, 3, 1048578, -65537, 3, 1048578, -131072, 4, 1048578, -131071, 4, 1048578, -131070, 4, 1048578, -131069, 4, 1048578, -131068, 4, 1048578, -131067, 4, 1048578, -65564, 4, 1048578, -65563, 4, 1048578, -65562, 4, 1048578, -65561, 4, 1048578, -65560, 4, 1048578, -65559, 4, 1048578, -65556, 4, 1048578, -65555, 4, 1048578, -65554, 4, 1048578, -65553, 4, 1048578, -65552, 4, 1048578, -65551, 4, 1048578, -65550, 4, 1048578, -65549, 4, 1048578, -65548, 4, 1048578, -65547, 4, 1048578, -65546, 4, 1048578, -65545, 4, 1048578, -65544, 4, 1048578, -65543, 4, 1048578, -65542, 4, 1048578, -65541, 4, 1048578, -65540, 4, 1048578, -65539, 4, 1048578, -65538, 4, 1048578, -65537, 4, 1048578, -131072, 5, 1048578, -131071, 5, 1048578, -131070, 5, 1048578, -131069, 5, 1048578, -131068, 5, 1048578, -131067, 5, 1048578, -65556, 5, 1048578, -65555, 5, 1048578, -65554, 5, 1048578, -65553, 5, 1048578, -65552, 5, 1048578, -65551, 5, 1048578, -65550, 5, 1048578, -65549, 5, 1048578, -65548, 5, 1048578, -65547, 5, 1048578, -65546, 5, 1048578, -65545, 5, 1048578, -65544, 5, 1048578, -65543, 5, 1048578, -65542, 5, 1048578, -65541, 5, 1048578, -65540, 5, 1048578, -65539, 5, 1048578, -65538, 5, 1048578, -65537, 5, 1048578, -131072, 6, 1048578, -131071, 6, 1048578, -131070, 6, 1048578, -131069, 6, 1048578, -131068, 6, 1048578, -131067, 6, 1048578, -65552, 6, 1048578, -65551, 6, 1048578, -65550, 6, 1048578, -65549, 6, 1048578, -65548, 6, 1048578, -65547, 6, 1048578, -65546, 6, 1048578, -65545, 6, 1048578, -65544, 6, 1048578, -65543, 6, 1048578, -65542, 6, 1048578, -65541, 6, 1048578, -65540, 6, 1048578, -65539, 6, 1048578, -65538, 6, 1048578, -65537, 6, 1048578, -131072, 7, 1048578, -65552, 7, 1048578, -65551, 7, 1048578, -65550, 7, 1048578, -65549, 7, 1048578, -65548, 7, 1048578, -65547, 7, 1048578, -65546, 7, 1048578, -65545, 7, 1048578, -65544, 7, 1048578, -65543, 7, 1048578, -65542, 7, 1048578, -65541, 7, 1048578, -65540, 7, 1048578, -65539, 7, 1048578, -65538, 7, 1048578, -65537, 7, 1048578, -131072, 8, 1048578, -65537, 8, 1048578, -131072, 9, 655360, -65537, 9, 1048578, -131072, 10, 1048578, -65537, 10, 1048578, -65550, 65520, 1048578, -65549, 65520, 1048578, -65548, 65520, 1048578, -65547, 65520, 1048578, -65546, 65520, 1048578, -65545, 65520, 1048578, -65544, 65520, 1048578, -65543, 65520, 1048578, -65542, 65520, 1048578, -65541, 65520, 1048578, -65540, 65520, 1048578, -65539, 65520, 1048578, -65538, 65520, 1048578, -65537, 65520, 1048578, -65550, 65521, 1048578, -65549, 65521, 1048578, -65548, 65521, 1048578, -65547, 65521, 1048578, -65546, 65521, 1048578, -65545, 65521, 1048578, -65544, 65521, 1048578, -65543, 65521, 1048578, -65542, 65521, 1048578, -65541, 65521, 1048578, -65540, 65521, 1048578, -65539, 65521, 1048578, -65538, 65521, 1048578, -65537, 65521, 1048578, -65558, 65522, 1048578, -65557, 65522, 1048578, -65556, 65522, 1048578, -65555, 65522, 1048578, -65554, 65522, 1048578, -65553, 65522, 1048578, -65552, 65522, 1048578, -65551, 65522, 1048578, -65550, 65522, 1048578, -65549, 65522, 1048578, -65548, 65522, 1048578, -65547, 65522, 1048578, -65546, 65522, 1048578, -65545, 65522, 1048578, -65544, 65522, 1048578, -65543, 65522, 1048578, -65542, 65522, 1048578, -65541, 65522, 1048578, -65540, 65522, 1048578, -65539, 65522, 1048578, -65538, 65522, 1048578, -65537, 65522, 1048578, -65558, 65523, 1048578, -65557, 65523, 1048578, -65556, 65523, 1048578, -65555, 65523, 1048578, -65554, 65523, 1048578, -65553, 65523, 1048578, -65552, 65523, 1048578, -65551, 65523, 1048578, -65550, 65523, 1048578, -65549, 65523, 1048578, -65548, 65523, 1048578, -65547, 65523, 1048578, -65546, 65523, 1048578, -65545, 65523, 1048578, -65544, 65523, 1048578, -65543, 65523, 1048578, -65542, 65523, 1048578, -65541, 65523, 1048578, -65540, 65523, 1048578, -65539, 65523, 1048578, -65538, 65523, 1048578, -65537, 65523, 1048578, -65558, 65524, 1048578, -65557, 65524, 1048578, -65556, 65524, 1048578, -65555, 65524, 1048578, -65554, 65524, 1048578, -65553, 65524, 1048578, -65552, 65524, 1048578, -65551, 65524, 1048578, -65550, 65524, 1048578, -65549, 65524, 1048578, -65548, 65524, 1048578, -65547, 65524, 1048578, -65546, 65524, 1048578, -65545, 65524, 1048578, -65544, 65524, 1048578, -65543, 65524, 1048578, -65542, 65524, 1048578, -65541, 65524, 1048578, -65540, 65524, 1048578, -65539, 65524, 1048578, -65538, 65524, 1048578, -65537, 65524, 1048578, -65558, 65525, 1048578, -65557, 65525, 1048578, -65556, 65525, 1048578, -65555, 65525, 1048578, -65554, 65525, 1048578, -65553, 65525, 1048578, -65552, 65525, 1048578, -65551, 65525, 1048578, -65550, 65525, 1048578, -65549, 65525, 1048578, -65548, 65525, 1048578, -65547, 65525, 1048578, -65546, 65525, 1048578, -65545, 65525, 1048578, -65544, 65525, 1048578, -65543, 65525, 1048578, -65542, 65525, 1048578, -65541, 65525, 1048578, -65540, 65525, 1048578, -65539, 65525, 1048578, -65538, 65525, 1048578, -65537, 65525, 1048578, -65562, 65526, 1048578, -65561, 65526, 1048578, -65560, 65526, 1048578, -65559, 65526, 1048578, -65558, 65526, 1048578, -65557, 65526, 1048578, -65556, 65526, 1048578, -65555, 65526, 1048578, -65554, 65526, 1048578, -65553, 65526, 1048578, -65552, 65526, 1048578, -65551, 65526, 1048578, -65550, 65526, 1048578, -65549, 65526, 1048578, -65548, 65526, 1048578, -65547, 65526, 1048578, -65546, 65526, 1048578, -65545, 65526, 1048578, -65544, 65526, 1048578, -65543, 65526, 1048578, -65542, 65526, 1048578, -65541, 65526, 1048578, -65540, 65526, 1048578, -65539, 65526, 1048578, -65538, 65526, 1048578, -65537, 65526, 1048578, -131072, 65527, 1048578, -131071, 65527, 1048578, -131070, 65527, 1048578, -131069, 65527, 1048578, -131068, 65527, 1048578, -131067, 65527, 1048578, -65562, 65527, 1048578, -65561, 65527, 1048578, -65560, 65527, 1048578, -65559, 65527, 1048578, -65558, 65527, 1048578, -65557, 65527, 1048578, -65556, 65527, 1048578, -65555, 65527, 1048578, -65554, 65527, 1048578, -65553, 65527, 1048578, -65552, 65527, 1048578, -65551, 65527, 1048578, -65550, 65527, 1048578, -65549, 65527, 1048578, -65548, 65527, 1048578, -65547, 65527, 1048578, -65546, 65527, 1048578, -65545, 65527, 1048578, -65544, 65527, 1048578, -65543, 65527, 1048578, -65542, 65527, 1048578, -65541, 65527, 1048578, -65540, 65527, 1048578, -65539, 65527, 1048578, -65538, 65527, 1048578, -65537, 65527, 1048578, -131072, 65528, 1048578, -131071, 65528, 1048578, -131070, 65528, 1048578, -131069, 65528, 1048578, -131068, 65528, 1048578, -131067, 65528, 1048578, -65560, 65528, 1048578, -65559, 65528, 1048578, -65558, 65528, 1048578, -65557, 65528, 1048578, -65556, 65528, 1048578, -65555, 65528, 1048578, -65554, 65528, 1048578, -65553, 65528, 1048578, -65552, 65528, 1048578, -65551, 65528, 1048578, -65550, 65528, 1048578, -65549, 65528, 1048578, -65548, 65528, 1048578, -65547, 65528, 1048578, -65546, 65528, 1048578, -65545, 65528, 1048578, -65544, 65528, 1048578, -65543, 65528, 1048578, -65542, 65528, 1048578, -65541, 65528, 1048578, -65540, 65528, 1048578, -65539, 65528, 1048578, -65538, 65528, 1048578, -65537, 65528, 1048578, -131072, 65529, 1048578, -131071, 65529, 1048578, -131070, 65529, 1048578, -131069, 65529, 1048578, -131068, 65529, 1048578, -131067, 65529, 1048578, -65560, 65529, 1048578, -65559, 65529, 1048578, -65558, 65529, 1048578, -65557, 65529, 1048578, -65556, 65529, 1048578, -65555, 65529, 1048578, -65554, 65529, 1048578, -65553, 65529, 1048578, -65552, 65529, 1048578, -65551, 65529, 1048578, -65550, 65529, 1048578, -65549, 65529, 1048578, -65548, 65529, 1048578, -65547, 65529, 1048578, -65546, 65529, 1048578, -65545, 65529, 1048578, -65544, 65529, 1048578, -65543, 65529, 1048578, -65542, 65529, 1048578, -65541, 65529, 1048578, -65540, 65529, 1048578, -65539, 65529, 1048578, -65538, 65529, 1048578, -65537, 65529, 1048578, -131072, 65530, 1048578, -131071, 65530, 1048578, -131070, 65530, 1048578, -131069, 65530, 1048578, -131068, 65530, 1048578, -131067, 65530, 1048578, -65562, 65530, 1048578, -65561, 65530, 1048578, -65560, 65530, 1048578, -65559, 65530, 1048578, -65558, 65530, 1048578, -65557, 65530, 1048578, -65556, 65530, 1048578, -65555, 65530, 1048578, -65554, 65530, 1048578, -65553, 65530, 1048578, -65552, 65530, 1048578, -65551, 65530, 1048578, -65550, 65530, 1048578, -65549, 65530, 1048578, -65548, 65530, 1048578, -65547, 65530, 1048578, -65546, 65530, 1048578, -65545, 65530, 1048578, -65544, 65530, 1048578, -65543, 65530, 1048578, -65542, 65530, 1048578, -65541, 65530, 1048578, -65540, 65530, 1048578, -65539, 65530, 1048578, -65538, 65530, 1048578, -65537, 65530, 1048578, -131072, 65531, 1048578, -131071, 65531, 1048578, -131070, 65531, 1048578, -131069, 65531, 1048578, -131068, 65531, 1048578, -131067, 65531, 1048578, -65562, 65531, 1048578, -65561, 65531, 1048578, -65560, 65531, 1048578, -65559, 65531, 1048578, -65558, 65531, 1048578, -65557, 65531, 1048578, -65556, 65531, 1048578, -65555, 65531, 1048578, -65554, 65531, 1048578, -65553, 65531, 1048578, -65552, 65531, 1048578, -65551, 65531, 1048578, -65550, 65531, 1048578, -65549, 65531, 1048578, -65548, 65531, 1048578, -65547, 65531, 1048578, -65546, 65531, 1048578, -65545, 65531, 1048578, -65544, 65531, 1048578, -65543, 65531, 1048578, -65542, 65531, 1048578, -65541, 65531, 1048578, -65540, 65531, 1048578, -65539, 65531, 1048578, -65538, 65531, 1048578, -65537, 65531, 1048578, -131072, 65532, 1048578, -131071, 65532, 1048578, -131070, 65532, 1048578, -131069, 65532, 1048578, -131068, 65532, 1048578, -131067, 65532, 1048578, -131066, 65532, 1048578, -131065, 65532, 1048578, -131064, 65532, 1048578, -65562, 65532, 1048578, -65561, 65532, 1048578, -65560, 65532, 1048578, -65559, 65532, 1048578, -65558, 65532, 1048578, -65557, 65532, 1048578, -65556, 65532, 1048578, -65555, 65532, 1048578, -65554, 65532, 1048578, -65553, 65532, 1048578, -65552, 65532, 1048578, -65551, 65532, 1048578, -65550, 65532, 1048578, -65549, 65532, 1048578, -65548, 65532, 1048578, -65547, 65532, 1048578, -65546, 65532, 1048578, -65545, 65532, 1048578, -65544, 65532, 1048578, -65543, 65532, 1048578, -65542, 65532, 1048578, -65541, 65532, 1048578, -65540, 65532, 1048578, -65539, 65532, 1048578, -65538, 65532, 1048578, -65537, 65532, 1048578, -131072, 65533, 1048578, -131071, 65533, 1048578, -131070, 65533, 1048578, -131069, 65533, 1048578, -131068, 65533, 1048578, -131067, 65533, 1048578, -131066, 65533, 1048578, -131065, 65533, 1048578, -131064, 65533, 1048578, -65562, 65533, 1048578, -65561, 65533, 1048578, -65560, 65533, 1048578, -65559, 65533, 1048578, -65558, 65533, 1048578, -65557, 65533, 1048578, -65556, 65533, 1048578, -65555, 65533, 1048578, -65554, 65533, 1048578, -65553, 65533, 1048578, -65552, 65533, 1048578, -65551, 65533, 1048578, -65550, 65533, 1048578, -65549, 65533, 1048578, -65548, 65533, 1048578, -65547, 65533, 1048578, -65546, 65533, 1048578, -65545, 65533, 1048578, -65544, 65533, 1048578, -65543, 65533, 1048578, -65542, 65533, 1048578, -65541, 65533, 1048578, -65540, 65533, 1048578, -65539, 65533, 1048578, -65538, 65533, 1048578, -65537, 65533, 1048578, -131072, 65534, 1048578, -131071, 65534, 1048578, -131070, 65534, 1048578, -131069, 65534, 1048578, -131068, 65534, 1048578, -131067, 65534, 1048578, -131066, 65534, 1048578, -131065, 65534, 1048578, -131064, 65534, 1048578, -65564, 65534, 1048578, -65563, 65534, 1048578, -65562, 65534, 1048578, -65561, 65534, 1048578, -65560, 65534, 1048578, -65559, 65534, 1048578, -65558, 65534, 1048578, -65557, 65534, 1048578, -65556, 65534, 1048578, -65555, 65534, 1048578, -65554, 65534, 1048578, -65553, 65534, 1048578, -65552, 65534, 1048578, -65551, 65534, 1048578, -65550, 65534, 1048578, -65549, 65534, 1048578, -65548, 65534, 1048578, -65547, 65534, 1048578, -65546, 65534, 1048578, -65545, 65534, 1048578, -65544, 65534, 1048578, -65543, 65534, 1048578, -65542, 65534, 1048578, -65541, 65534, 1048578, -65540, 65534, 1048578, -65539, 65534, 1048578, -65538, 65534, 1048578, -65537, 65534, 1048578, -131072, 65535, 1048578, -131071, 65535, 1048578, -131070, 65535, 1048578, -131069, 65535, 1048578, -131068, 65535, 1048578, -131067, 65535, 1048578, -131066, 65535, 1048578, -131065, 65535, 1048578, -131064, 65535, 1048578, -65564, 65535, 1048578, -65563, 65535, 1048578, -65562, 65535, 1048578, -65561, 65535, 1048578, -65560, 65535, 1048578, -65559, 65535, 1048578, -65558, 65535, 1048578, -65557, 65535, 1048578, -65556, 65535, 1048578, -65555, 65535, 1048578, -65554, 65535, 1048578, -65553, 65535, 1048578, -65552, 65535, 1048578, -65551, 65535, 1048578, -65550, 65535, 1048578, -65549, 65535, 1048578, -65548, 65535, 1048578, -65547, 65535, 1048578, -65546, 65535, 1048578, -65545, 65535, 1048578, -65544, 65535, 1048578, -65543, 65535, 1048578, -65542, 65535, 1048578, -65541, 65535, 1048578, -65540, 65535, 1048578, -65539, 65535, 1048578, -65538, 65535, 1048578, -65537, 65535, 1048578 )
}
script = ExtResource( 11 )
__meta__ = {
"_editor_clip_": 0,
"_editor_floor_": Vector3( 0, -2, 0 )
}

[node name="Objects" type="GridMap" parent="UG"]
transform = Transform( 1, 0, 0, 0, 1, 0, 0, 0, 1, 0.125, -0.16, 0.125 )
mesh_library = ExtResource( 15 )
cell_size = Vector3( 0.25, 0.25, 0.25 )
data = {
"cells": PoolIntArray( -196658, 13, 46, -196626, 13, 46, -262121, 16, 1441838, -196697, 16, 1441838, -196680, 23, 655406, -262141, 27, 1441838, -196609, 65484, 1441838, -196695, 65488, 1048622, -196663, 65488, 1048622, -196609, 65496, 1441838, -196621, 65497, 46, -196656, 65503, 46, -262121, 65511, 1441838, -196705, 65513, 46, -196675, 65513, 46, -196633, 65521, 1441838, -196701, 65529, 46, -196659, 65529, 46, -196641, 65529, 46, -196620, 65529, 46, -262109, 65532, 1441838, -262109, 65533, 1441838, -196695, 65533, 1048622 )
}
script = ExtResource( 14 )
__meta__ = {
"_editor_clip_": 0,
"_editor_floor_": Vector3( 0, -4, 0 )
}
torch = ExtResource( 4 )

[node name="OG1" type="GridMap" parent="."]
mesh_library = ExtResource( 2 )
cell_size = Vector3( 0.5, 1, 0.5 )
collision_mask = 0
data = {
"cells": PoolIntArray( 131082, 0, 1441792, 196546, 0, 655363, 196550, 0, 655362, 196564, 0, 655363, 196569, 0, 655375, 196574, 0, 655362, 196576, 0, 655360, 196581, 0, 655363, 196585, 0, 2, 196587, 0, 11, 131074, 2, 655367, 131078, 2, 2, 131082, 2, 1441795, 131086, 2, 655360, 131088, 2, 655362, 131092, 2, 1441795, 196542, 2, 1048578, 196606, 2, 1048579, 196552, 3, 1048585, 196596, 3, 1048578, 131086, 4, 1441794, 196596, 5, 1048576, 196542, 6, 655363, 196546, 6, 2, 196550, 6, 655362, 196564, 6, 1048579, 196568, 6, 655362, 196570, 6, 1048576, 196572, 6, 2, 196576, 6, 655362, 196581, 6, 655369, 196586, 6, 655362, 196590, 6, 655362, 196594, 6, 655362, 196606, 6, 1048578, 196595, 7, 1048576, 131078, 8, 1441792, 131086, 8, 1441794, 196552, 8, 1441794, 196569, 8, 1048578, 196595, 9, 1048578, 131074, 10, 3, 131078, 10, 1441794, 196552, 10, 655362, 196556, 10, 2, 196560, 10, 2, 196564, 10, 1441795, 196606, 10, 655363, 196595, 11, 0, 131086, 12, 1441794, 196569, 12, 655363, 196573, 12, 2, 196577, 12, 2, 196581, 12, 2, 196585, 12, 2, 196589, 12, 2, 196593, 12, 2, 131074, 14, 1048578, 131078, 14, 1048578, 131078, 16, 1441802, 131086, 16, 1441794, 131074, 18, 1441795, 131079, 18, 1441792, 131081, 18, 655370, 131084, 18, 9, 131088, 18, 1048578, 131089, 18, 2, 196606, 18, 1048579, 131088, 22, 1441794, 196606, 22, 1441794, 131075, 26, 9, 131080, 26, 655362, 131084, 26, 655362, 131088, 26, 1441795, 196606, 26, 655363, 131075, 27, 2, 196564, 65506, 1048579, 196568, 65506, 2, 196572, 65506, 655362, 196576, 65506, 655362, 196580, 65506, 655362, 196584, 65506, 3, 196564, 65510, 1048578, 196584, 65511, 1441807, 196585, 65511, 1441794, 196596, 65511, 1441794, 196590, 65512, 1441792, 196592, 65512, 655362, 196596, 65512, 655362, 196564, 65514, 1048578, 196572, 65514, 1048579, 196576, 65514, 7, 196581, 65514, 9, 196584, 65514, 0, 196586, 65514, 2, 196590, 65514, 1441799, 196596, 65515, 1048578, 196568, 65516, 1048587, 196564, 65518, 655363, 196568, 65518, 655367, 196572, 65518, 1441795, 196576, 65518, 1048578, 196590, 65518, 1048578, 196596, 65519, 1048578, 131074, 65522, 1048579, 131078, 65522, 2, 131082, 65522, 3, 196576, 65522, 1048578, 196590, 65522, 1048578, 196596, 65523, 1441794, 131082, 65524, 0, 131084, 65524, 2, 131088, 65524, 2, 131092, 65524, 3, 131074, 65526, 1048578, 131082, 65526, 1441806, 196576, 65526, 1048583, 196581, 65526, 655369, 196586, 65526, 2, 196590, 65526, 1441795, 196596, 65527, 1441794, 131092, 65528, 1441794, 131074, 65530, 1048578, 131082, 65530, 1441804, 196542, 65530, 1441794, 196576, 65530, 1048578, 196544, 65531, 2, 196596, 65531, 1441794, 196546, 65532, 1048578, 196552, 65532, 2, 196556, 65532, 2, 196560, 65532, 2, 196564, 65532, 3, 196581, 65532, 1048579, 196585, 65532, 2, 196589, 65532, 2, 196591, 65532, 0, 196593, 65532, 14, 196596, 65532, 1441792, 131092, 65533, 1441807, 131093, 65533, 1441794, 131074, 65534, 1048578, 131082, 65534, 1441804, 196542, 65534, 1048578, 196552, 65534, 1441794, 196576, 65534, 1048578, 196569, 65535, 655362, 196596, 65535, 1441794 )
}
__meta__ = {
"_editor_clip_": 0,
"_editor_floor_": Vector3( 0, 2, 0 )
}

[node name="FloorOG1" type="GridMap" parent="OG1"]
transform = Transform( 1, 0, 0, 0, 1, 0, 0, 0, 1, 0.25, 0, 0.25 )
mesh_library = ExtResource( 1 )
cell_size = Vector3( 1, 1, 1 )
data = {
"cells": PoolIntArray( 131072, 0, 1441794, 131077, 0, 1441794, 131078, 0, 1441794, 131079, 0, 1441794, 131080, 0, 1441794, 131081, 0, 1441794, 196575, 0, 1048578, 196576, 0, 1048578, 196577, 0, 1048578, 196578, 0, 1048578, 196579, 0, 1048578, 196586, 0, 1048578, 196587, 0, 1048578, 196588, 0, 1048578, 196589, 0, 1048578, 196590, 0, 1441794, 196591, 0, 1441794, 196592, 0, 655362, 196593, 0, 655362, 196594, 0, 655362, 196595, 0, 655362, 196596, 0, 655362, 196597, 0, 655362, 196598, 0, 655362, 196599, 0, 655362, 196600, 0, 655362, 196601, 0, 655362, 196602, 0, 1441794, 196603, 0, 1441794, 196604, 0, 1441794, 196605, 0, 1441794, 196606, 0, 1441794, 196607, 0, 1441794, 196611, 0, 655369, 196612, 0, 655369, 196613, 0, 655369, 262134, 0, 655369, 262135, 0, 655369, 262136, 0, 655369, 262137, 0, 655369, 262138, 0, 655369, 262139, 0, 655369, 262140, 0, 655369, 262142, 0, 655369, 262143, 0, 655369, 327680, 0, 655369, 327681, 0, 655369, 327682, 0, 655369, 327683, 0, 655369, 327684, 0, 655369, 327685, 0, 655369, 393214, 0, 655369, 393215, 0, 655369, 196575, 1, 1048578, 196576, 1, 1048578, 196577, 1, 1048578, 196578, 1, 1048578, 196579, 1, 1048578, 196586, 1, 1048578, 196587, 1, 1048578, 196588, 1, 1048578, 196589, 1, 1048578, 196590, 1, 1048578, 196591, 1, 1048578, 196592, 1, 655362, 196593, 1, 655362, 196594, 1, 655362, 196595, 1, 655362, 196596, 1, 655362, 196597, 1, 655362, 196598, 1, 655362, 196599, 1, 655362, 196600, 1, 655362, 196601, 1, 655362, 196602, 1, 1441794, 196603, 1, 1441794, 196604, 1, 1441794, 196605, 1, 1441794, 196606, 1, 1441794, 262134, 1, 655369, 262135, 1, 655369, 262136, 1, 655369, 262137, 1, 655369, 262138, 1, 655369, 262139, 1, 655369, 327680, 1, 655369, 327681, 1, 655369, 327682, 1, 655369, 327683, 1, 655369, 327684, 1, 655369, 327685, 1, 655369, 393214, 1, 655369, 393215, 1, 655369, 196575, 2, 1048578, 196576, 2, 1048578, 196577, 2, 1048578, 196578, 2, 1048578, 196579, 2, 1048578, 196586, 2, 1048578, 196587, 2, 1048578, 196588, 2, 1048578, 196589, 2, 1048578, 196590, 2, 1048578, 196591, 2, 1048578, 196592, 2, 655362, 196593, 2, 655362, 196594, 2, 655362, 196595, 2, 655362, 196596, 2, 655362, 196597, 2, 655362, 196598, 2, 655362, 196599, 2, 655362, 196600, 2, 655362, 196601, 2, 655362, 196602, 2, 1441794, 196603, 2, 1441794, 196604, 2, 1441794, 196605, 2, 1441794, 196606, 2, 1441794, 262134, 2, 655369, 262135, 2, 655369, 262136, 2, 655369, 262137, 2, 655369, 262138, 2, 655369, 262141, 2, 655369, 262142, 2, 655369, 327680, 2, 655369, 327681, 2, 655369, 327682, 2, 655369, 327683, 2, 655369, 327684, 2, 655369, 327685, 2, 655369, 393214, 2, 655369, 393215, 2, 655369, 196586, 3, 1441794, 196587, 3, 1441794, 196588, 3, 1441794, 196593, 3, 1048578, 196594, 3, 1048578, 196595, 3, 1048578, 196601, 3, 1441794, 196602, 3, 1441794, 196603, 3, 1441794, 196604, 3, 1441794, 196605, 3, 1441794, 196606, 3, 1441794, 262134, 3, 655369, 262135, 3, 655369, 262136, 3, 655369, 262137, 3, 655369, 262138, 3, 655369, 262139, 3, 655369, 262140, 3, 655369, 262141, 3, 655369, 262142, 3, 655369, 327680, 3, 655369, 327681, 3, 655369, 327682, 3, 655369, 327683, 3, 655369, 327684, 3, 655369, 327685, 3, 655369, 393214, 3, 655369, 393215, 3, 655369, 196586, 4, 1441794, 196587, 4, 1441794, 196588, 4, 1441794, 196593, 4, 1048578, 196594, 4, 1048578, 196595, 4, 1048578, 196601, 4, 1441794, 196602, 4, 1441794, 196603, 4, 1441794, 196604, 4, 1441794, 196605, 4, 1441794, 196606, 4, 1441794, 262134, 4, 655369, 262135, 4, 655369, 262136, 4, 655369, 262137, 4, 655369, 262138, 4, 655369, 262139, 4, 655369, 262140, 4, 655369, 262141, 4, 655369, 262142, 4, 655369, 327680, 4, 655369, 327681, 4, 655369, 327682, 4, 655369, 327683, 4, 655369, 327684, 4, 655369, 327685, 4, 655369, 393214, 4, 655369, 393215, 4, 655369, 131072, 5, 1441794, 196586, 5, 1441794, 196587, 5, 1441794, 196588, 5, 1441794, 196593, 5, 1048578, 196594, 5, 1048578, 196595, 5, 1048578, 196601, 5, 1441794, 196602, 5, 1441794, 196603, 5, 1441794, 196604, 5, 1441794, 196605, 5, 1441794, 196606, 5, 1441794, 196607, 5, 1441794, 262134, 5, 655369, 262135, 5, 655369, 262136, 5, 655369, 262137, 5, 655369, 262138, 5, 655369, 262139, 5, 655369, 262140, 5, 655369, 262141, 5, 655369, 262142, 5, 655369, 327680, 5, 655369, 327681, 5, 655369, 327682, 5, 655369, 327683, 5, 655369, 327684, 5, 655369, 327685, 5, 655369, 393214, 5, 655369, 393215, 5, 655369, 131072, 6, 1441794, 196601, 6, 1441794, 196602, 6, 1441794, 196603, 6, 1441794, 196604, 6, 1441794, 196605, 6, 1441794, 196606, 6, 1441794, 196607, 6, 1441794, 327680, 6, 655369, 327681, 6, 655369, 327682, 6, 655369, 327683, 6, 655369, 131072, 7, 1441794, 196601, 7, 1441794, 196602, 7, 1441794, 196603, 7, 1441794, 196604, 7, 1441794, 196605, 7, 1441794, 196606, 7, 1441794, 196607, 7, 1441794, 327680, 7, 655369, 327681, 7, 655369, 327682, 7, 655369, 327683, 7, 655369, 131072, 8, 1441794, 196601, 8, 1441794, 196602, 8, 1441794, 196603, 8, 1441794, 196604, 8, 1441794, 196605, 8, 1441794, 196606, 8, 1441794, 196607, 8, 1441794, 327680, 8, 655369, 327681, 8, 655369, 327682, 8, 655369, 327683, 8, 655369, 327684, 8, 655369, 327685, 8, 655369, 393214, 8, 655369, 393215, 8, 655369, 131072, 9, 1048578, 131073, 9, 1048578, 131074, 9, 1048578, 131075, 9, 1048578, 131076, 9, 1048578, 131077, 9, 1048578, 131078, 9, 1048578, 131079, 9, 1048578, 196601, 9, 1441794, 196602, 9, 1441794, 196603, 9, 1441794, 196604, 9, 1441794, 196605, 9, 1441794, 196606, 9, 1441794, 196607, 9, 1048578, 327680, 9, 655369, 327681, 9, 655369, 327682, 9, 655369, 327683, 9, 655369, 327684, 9, 655369, 327685, 9, 655369, 393214, 9, 655369, 393215, 9, 655369, 131072, 10, 1048578, 131073, 10, 1048578, 131074, 10, 1048578, 131075, 10, 1048578, 131076, 10, 1048578, 131077, 10, 1048578, 131078, 10, 1048578, 131079, 10, 1048578, 196601, 10, 1441794, 196602, 10, 1441794, 196603, 10, 1441794, 196604, 10, 1441794, 196605, 10, 1441794, 196606, 10, 1441794, 196607, 10, 1048578, 327680, 10, 655369, 327681, 10, 655369, 327682, 10, 655369, 327683, 10, 655369, 327684, 10, 655369, 327685, 10, 655369, 393214, 10, 655369, 393215, 10, 655369, 131072, 11, 1048578, 131073, 11, 1048578, 131074, 11, 1048578, 131075, 11, 1048578, 131076, 11, 1048578, 131077, 11, 1048578, 131078, 11, 1048578, 131079, 11, 1048578, 196604, 11, 1441794, 196605, 11, 1441794, 196606, 11, 1441794, 196607, 11, 1048578, 327680, 11, 655369, 327681, 11, 655369, 327682, 11, 655369, 327683, 11, 655369, 327684, 11, 655369, 327685, 11, 655369, 393214, 11, 655369, 393215, 11, 655369, 131072, 12, 1048578, 131073, 12, 1048578, 131074, 12, 1048578, 131075, 12, 1048578, 131076, 12, 1048578, 131077, 12, 1048578, 131078, 12, 1048578, 131079, 12, 1048578, 196604, 12, 1441794, 196605, 12, 1441794, 196606, 12, 1441794, 196607, 12, 1048578, 327680, 12, 655369, 327681, 12, 655369, 327682, 12, 655369, 327683, 12, 655369, 327684, 12, 655369, 327685, 12, 655369, 393214, 12, 655369, 393215, 12, 655369, 15, 13, 2, 327680, 13, 655369, 327681, 13, 655369, 327682, 13, 655369, 327683, 13, 655369, 327684, 13, 655369, 327685, 13, 655369, 393214, 13, 655369, 393215, 13, 655369, 15, 14, 2, 196596, 65520, 1441794, 196597, 65520, 1441794, 196598, 65520, 1441794, 196599, 65520, 1441794, 196580, 65521, 1441794, 196581, 65521, 1441794, 196582, 65521, 1441794, 196583, 65521, 1441794, 196584, 65521, 1441794, 196585, 65521, 1441794, 196586, 65521, 1048578, 196587, 65521, 1048578, 196588, 65521, 1048578, 196589, 65521, 1048578, 196590, 65521, 1048578, 196591, 65521, 1048578, 196592, 65521, 1048578, 196593, 65521, 1048578, 196594, 65521, 1048578, 196595, 65521, 1048578, 196596, 65521, 1441794, 196597, 65521, 1441794, 196598, 65521, 1441794, 196599, 65521, 1441794, 196580, 65522, 1441794, 196581, 65522, 1441794, 196582, 65522, 1441794, 196583, 65522, 1441794, 196584, 65522, 1441794, 196585, 65522, 1441794, 196586, 65522, 1048578, 196587, 65522, 1048578, 196588, 65522, 1048578, 196589, 65522, 1048578, 196590, 65522, 1048578, 196591, 65522, 1048578, 196592, 65522, 1048578, 196593, 65522, 1048578, 196594, 65522, 1048578, 196595, 65522, 1048578, 196596, 65522, 1441794, 196597, 65522, 1441794, 196598, 65522, 1441794, 196599, 65522, 1441794, 196600, 65522, 1441794, 196601, 65522, 1441794, 196580, 65523, 1441794, 196581, 65523, 1441794, 196582, 65523, 1441794, 196583, 65523, 1441794, 196584, 65523, 1441794, 196585, 65523, 1441794, 196586, 65523, 1048578, 196587, 65523, 1048578, 196588, 65523, 1048578, 196589, 65523, 1048578, 196590, 65523, 1048578, 196591, 65523, 1048578, 196592, 65523, 1048578, 196593, 65523, 1048578, 196594, 65523, 1048578, 196595, 65523, 1048578, 196596, 65523, 1441794, 196597, 65523, 1441794, 196598, 65523, 1441794, 196599, 65523, 1441794, 196600, 65523, 1441794, 196601, 65523, 1441794, 196602, 65523, 1441794, 196603, 65523, 1441794, 196604, 65523, 1441794, 196605, 65523, 1441794, 196606, 65523, 1441794, 196607, 65523, 1441794, 196580, 65524, 1441794, 196581, 65524, 1441794, 196582, 65524, 1441794, 196583, 65524, 1441794, 196584, 65524, 1441794, 196585, 65524, 1441794, 196586, 65524, 1048578, 196587, 65524, 1048578, 196588, 65524, 1048578, 196589, 65524, 1048578, 196590, 65524, 1048578, 196591, 65524, 1048578, 196592, 65524, 1048578, 196593, 65524, 1048578, 196594, 65524, 1048578, 196595, 65524, 1048578, 196596, 65524, 1441794, 196597, 65524, 1441794, 196598, 65524, 1441794, 196602, 65524, 1441794, 196603, 65524, 1441794, 196604, 65524, 1441794, 196605, 65524, 1441794, 196606, 65524, 1441794, 196607, 65524, 1441794, 196580, 65525, 1441794, 196581, 65525, 1441794, 196582, 65525, 1441794, 196583, 65525, 1441794, 196584, 65525, 1441794, 196585, 65525, 1441794, 196590, 65525, 1441794, 196591, 65525, 1441794, 196602, 65525, 1441794, 196603, 65525, 1441794, 196604, 65525, 1441794, 196605, 65525, 1441794, 196606, 65525, 1441794, 196607, 65525, 1441794, 196580, 65526, 1441794, 196581, 65526, 1441794, 196582, 65526, 1441794, 196583, 65526, 1441794, 196584, 65526, 1441794, 196585, 65526, 1441794, 196590, 65526, 1441794, 196591, 65526, 1441794, 196580, 65527, 1441794, 196581, 65527, 1441794, 196582, 65527, 1441794, 196583, 65527, 1441794, 196584, 65527, 1441794, 196585, 65527, 1441794, 196586, 65527, 1441794, 196587, 65527, 1441794, 196588, 65527, 1441794, 196589, 65527, 1441794, 196590, 65527, 1441794, 196591, 65527, 1441794, 196580, 65528, 1441794, 196581, 65528, 1441794, 196582, 65528, 1441794, 196583, 65528, 1441794, 196584, 65528, 1441794, 196585, 65528, 1441794, 196586, 65528, 1441794, 196587, 65528, 1441794, 196588, 65528, 1441794, 196589, 65528, 1441794, 196590, 65528, 1441794, 196591, 65528, 1441794, 196599, 65528, 1048578, 196600, 65528, 1048578, 196601, 65528, 1048578, 196608, 65528, 655369, 196609, 65528, 655369, 196610, 65528, 655369, 196611, 65528, 655369, 196612, 65528, 655369, 196613, 65528, 655369, 262134, 65528, 655369, 262135, 65528, 655369, 262136, 65528, 655369, 262137, 65528, 655369, 262138, 65528, 655369, 262139, 65528, 655369, 262140, 65528, 655369, 262141, 65528, 655369, 262142, 65528, 655369, 262143, 65528, 655369, 131072, 65529, 1441794, 196580, 65529, 1441794, 196581, 65529, 1441794, 196582, 65529, 1441794, 196583, 65529, 1441794, 196584, 65529, 1441794, 196585, 65529, 1441794, 196586, 65529, 1441794, 196587, 65529, 1441794, 196588, 65529, 1441794, 196589, 65529, 1441794, 196590, 65529, 1441794, 196591, 65529, 1441794, 196599, 65529, 1048578, 196600, 65529, 1048578, 196601, 65529, 1048578, 196602, 65529, 1441794, 196603, 65529, 1441794, 196604, 65529, 1441794, 196605, 65529, 1441794, 196606, 65529, 1441794, 196607, 65529, 1441794, 196608, 65529, 655369, 196609, 65529, 655369, 196610, 65529, 655369, 196611, 65529, 655369, 196612, 65529, 655369, 196613, 65529, 655369, 262134, 65529, 655369, 262135, 65529, 655369, 262136, 65529, 655369, 262137, 65529, 655369, 262138, 65529, 655369, 262139, 65529, 655369, 262140, 65529, 655369, 262141, 65529, 655369, 262142, 65529, 655369, 262143, 65529, 655369, 131072, 65530, 1441794, 131077, 65530, 1441794, 131078, 65530, 1441794, 131079, 65530, 1441794, 131080, 65530, 1441794, 131081, 65530, 1441794, 196580, 65530, 1441794, 196581, 65530, 1441794, 196582, 65530, 1441794, 196583, 65530, 1441794, 196584, 65530, 1441794, 196585, 65530, 1441794, 196586, 65530, 1441794, 196587, 65530, 1441794, 196588, 65530, 1441794, 196589, 65530, 1441794, 196590, 65530, 1441794, 196591, 65530, 1441794, 196599, 65530, 1048578, 196600, 65530, 1048578, 196601, 65530, 1048578, 196602, 65530, 1441794, 196603, 65530, 1441794, 196604, 65530, 1441794, 196605, 65530, 1441794, 196606, 65530, 1441794, 196607, 65530, 1441794, 196608, 65530, 655369, 196609, 65530, 655369, 196610, 65530, 655369, 196611, 65530, 655369, 196612, 65530, 655369, 196613, 65530, 655369, 262134, 65530, 655369, 262135, 65530, 655369, 262136, 65530, 655369, 262137, 65530, 655369, 262138, 65530, 655369, 262139, 65530, 655369, 262140, 65530, 655369, 262141, 65530, 655369, 262142, 65530, 655369, 262143, 65530, 655369, 131072, 65531, 1441794, 131077, 65531, 1441794, 131078, 65531, 1441794, 131079, 65531, 1441794, 131080, 65531, 1441794, 131081, 65531, 1441794, 196580, 65531, 1441794, 196581, 65531, 1441794, 196582, 65531, 1441794, 196583, 65531, 1441794, 196584, 65531, 1441794, 196585, 65531, 1441794, 196586, 65531, 1441794, 196587, 65531, 1441794, 196588, 65531, 1441794, 196589, 65531, 1441794, 196590, 65531, 1441794, 196591, 65531, 1441794, 196592, 65531, 1048578, 196593, 65531, 1048578, 196594, 65531, 1048578, 196595, 65531, 1048578, 196596, 65531, 1048578, 196597, 65531, 1048578, 196598, 65531, 1048578, 196599, 65531, 1048578, 196600, 65531, 1048578, 196601, 65531, 1048578, 196602, 65531, 1441794, 196603, 65531, 1441794, 196604, 65531, 1441794, 196605, 65531, 1441794, 196606, 65531, 1441794, 196607, 65531, 1441794, 196608, 65531, 655369, 196609, 65531, 655369, 196610, 65531, 655369, 196611, 65531, 655369, 196612, 65531, 655369, 196613, 65531, 655369, 262134, 65531, 655369, 262135, 65531, 655369, 262136, 65531, 655369, 262137, 65531, 655369, 262138, 65531, 655369, 262139, 65531, 655369, 262140, 65531, 655369, 262141, 65531, 655369, 262142, 65531, 655369, 262143, 65531, 655369, 131072, 65532, 1441794, 131077, 65532, 1441794, 131078, 65532, 1441794, 131079, 65532, 1441794, 131080, 65532, 1441794, 131081, 65532, 1441794, 196575, 65532, 1048578, 196576, 65532, 1048578, 196580, 65532, 1441794, 196581, 65532, 1441794, 196582, 65532, 1441794, 196583, 65532, 1441794, 196584, 65532, 1441794, 196585, 65532, 1441794, 196586, 65532, 1441794, 196587, 65532, 1441794, 196588, 65532, 1441794, 196589, 65532, 1441794, 196590, 65532, 1441794, 196591, 65532, 1441794, 196592, 65532, 1048578, 196593, 65532, 1048578, 196594, 65532, 1048578, 196595, 65532, 1048578, 196596, 65532, 1048578, 196597, 65532, 1048578, 196598, 65532, 1048578, 196599, 65532, 1048578, 196600, 65532, 1048578, 196601, 65532, 1048578, 196602, 65532, 1441794, 196603, 65532, 1441794, 196604, 65532, 1441794, 196605, 65532, 1441794, 196606, 65532, 1441794, 196607, 65532, 1441794, 196608, 65532, 655369, 196609, 65532, 655369, 196610, 65532, 655369, 196611, 65532, 655369, 196612, 65532, 655369, 196613, 65532, 655369, 262134, 65532, 655369, 262135, 65532, 655369, 262136, 65532, 655369, 262137, 65532, 655369, 262138, 65532, 655369, 262139, 65532, 655369, 262140, 65532, 655369, 262141, 65532, 655369, 262142, 65532, 655369, 262143, 65532, 655369, 131072, 65533, 1441794, 131077, 65533, 1441794, 131078, 65533, 1441794, 131079, 65533, 1441794, 131080, 65533, 1441794, 131081, 65533, 1441794, 196575, 65533, 1048578, 196576, 65533, 1048578, 196580, 65533, 1441794, 196581, 65533, 1441794, 196582, 65533, 1441794, 196583, 65533, 1441794, 196584, 65533, 1441794, 196585, 65533, 1441794, 196586, 65533, 1441794, 196587, 65533, 1441794, 196588, 65533, 1441794, 196589, 65533, 1441794, 196590, 65533, 1441794, 196591, 65533, 1441794, 196592, 65533, 1048578, 196593, 65533, 1048578, 196594, 65533, 1048578, 196595, 65533, 1048578, 196596, 65533, 1048578, 196597, 65533, 1048578, 196598, 65533, 1048578, 196599, 65533, 1048578, 196600, 65533, 1048578, 196601, 65533, 1048578, 196602, 65533, 1441794, 196603, 65533, 1441794, 196604, 65533, 1441794, 196605, 65533, 1441794, 196606, 65533, 1441794, 196607, 65533, 1441794, 196608, 65533, 655369, 196609, 65533, 655369, 196610, 65533, 655369, 196611, 65533, 655369, 196612, 65533, 655369, 196613, 65533, 655369, 262134, 65533, 655369, 262135, 65533, 655369, 262136, 65533, 655369, 262137, 65533, 655369, 262138, 65533, 655369, 262139, 65533, 655369, 262140, 65533, 655369, 262141, 65533, 655369, 262142, 65533, 655369, 262143, 65533, 655369, 131072, 65534, 1441794, 131077, 65534, 1441794, 131078, 65534, 1441794, 131079, 65534, 1441794, 131080, 65534, 1441794, 131081, 65534, 1441794, 196575, 65534, 1048578, 196576, 65534, 1048578, 196586, 65534, 1441794, 196587, 65534, 1441794, 196588, 65534, 1441794, 196589, 65534, 1441794, 196590, 65534, 1441794, 196591, 65534, 1441794, 196592, 65534, 1048578, 196593, 65534, 1048578, 196594, 65534, 1048578, 196598, 65534, 2, 196599, 65534, 1048578, 196600, 65534, 1048578, 196601, 65534, 1048578, 196602, 65534, 1441794, 196603, 65534, 1441794, 196604, 65534, 1441794, 196605, 65534, 1441794, 196606, 65534, 1441794, 196607, 65534, 1441794, 196608, 65534, 655369, 196609, 65534, 655369, 196610, 65534, 655369, 196611, 65534, 655369, 196612, 65534, 655369, 196613, 65534, 655369, 262134, 65534, 655369, 262135, 65534, 655369, 262136, 65534, 655369, 262137, 65534, 655369, 262138, 65534, 655369, 262139, 65534, 655369, 262140, 65534, 655369, 262141, 65534, 655369, 262143, 65534, 655369, 131072, 65535, 1441794, 131077, 65535, 1441794, 131078, 65535, 1441794, 131079, 65535, 1441794, 131080, 65535, 1441794, 131081, 65535, 1441794, 196575, 65535, 1048578, 196576, 65535, 1048578, 196586, 65535, 1441794, 196587, 65535, 1441794, 196588, 65535, 1441794, 196589, 65535, 1441794, 196590, 65535, 1441794, 196591, 65535, 1441794, 196592, 65535, 1048578, 196593, 65535, 1048578, 196594, 65535, 1048578, 196598, 65535, 1048578, 196599, 65535, 1048578, 196600, 65535, 1048578, 196601, 65535, 1048578, 196602, 65535, 1441794, 196603, 65535, 1441794, 196604, 65535, 1441794, 196605, 65535, 1441794, 196606, 65535, 1441794, 196607, 65535, 1441794, 196609, 65535, 655369, 196610, 65535, 655369, 196611, 65535, 655369, 196612, 65535, 655369, 196613, 65535, 655369, 262134, 65535, 655369, 262135, 65535, 655369, 262136, 65535, 655369, 262137, 65535, 655369, 262138, 65535, 655369, 262139, 65535, 655369, 262140, 65535, 655369, 262143, 65535, 655369 )
}
script = ExtResource( 11 )
__meta__ = {
"_editor_clip_": 0,
"_editor_floor_": Vector3( 0, 3, 0 )
}

[node name="Objects" type="GridMap" parent="OG1"]
transform = Transform( 1, 0, 0, 0, 1, 0, 0, 0, 1, 0.125, -0.16, 0.125 )
mesh_library = ExtResource( 15 )
cell_size = Vector3( 0.25, 0.25, 0.25 )
data = {
"cells": PoolIntArray( 786356, 11, 655406, 786389, 11, 655406, 720923, 19, 1441838, 786378, 23, 655406, 720927, 45, 1441838, 786429, 45, 1048622, 786402, 65489, 46, 786368, 65491, 655406, 786369, 65504, 1048622, 786388, 65517, 46, 786379, 65532, 1048622 )
}
script = ExtResource( 14 )
__meta__ = {
"_editor_clip_": 0,
"_editor_floor_": Vector3( 0, 11, 0 )
}
torch = ExtResource( 4 )

[node name="Waypoints" parent="." instance=ExtResource( 6 )]
transform = Transform( 1, 0, 0, 0, 1, 0, 0, 0, 1, 0, 0, 0 )
visible = false
data = {
"cells": PoolIntArray( 196566, 0, 0, 196592, 0, 0, 720866, 0, 0, 720880, 0, 0, -393216, 0, 1441792, -393200, 0, 1441792, -327728, 0, 1441792, 131073, 1, 0, 196604, 1, 0, 196606, 1, 0, -393210, 1, 1441792, -393207, 1, 1441792, -393204, 1, 1441792, -393202, 1, 1441792, 196554, 2, 0, 196573, 2, 0, 196577, 2, 0, 196581, 2, 0, 655372, 2, 0, -327726, 2, 1441792, -327722, 2, 1441792, 196566, 3, 0, 196570, 3, 0, 196584, 3, 0, 196588, 3, 0, 196592, 3, 0, 720841, 3, 0, 720845, 3, 0, 720849, 3, 0, 720853, 3, 0, 720857, 3, 0, 720861, 3, 0, 720865, 3, 0, 720867, 3, 0, 720871, 3, 0, 720874, 3, 0, 720878, 3, 0, -393216, 3, 1441792, -393209, 3, 1441792, -327718, 3, 1441792, 131074, 4, 0, 131077, 4, 0, 131080, 5, 0, 196554, 5, 0, 196571, 5, 0, 196604, 5, 0, 720869, 5, 0, -393208, 5, 1441792, -327726, 5, 1441792, -327724, 5, 1441792, -327722, 5, 1441792, 131076, 6, 0, 655372, 6, 0, 196592, 7, 0, 196595, 7, 0, 720869, 7, 0, -393216, 7, 1441792, -393206, 7, 1441792, -327718, 7, 1441792, 131081, 8, 0, 196554, 8, 0, 196598, 8, 0, 196601, 8, 0, 196604, 8, 0, -327710, 8, 1441792, -327706, 8, 1441792, -327702, 8, 1441792, -327692, 8, 1441792, -327688, 8, 1441792, -327684, 8, 1441792, 196571, 9, 0, 196590, 9, 0, 327645, 9, 1441792, 327661, 9, 1441792, 524255, 9, 1441792, 524267, 9, 1441792, 720865, 9, 0, 720869, 9, 0, 720873, 9, 0, 131076, 10, 0, 655372, 10, 0, -393206, 10, 1441792, -327718, 10, 1441792, -327716, 10, 1441792, -327713, 10, 1441792, -327710, 10, 1441792, -327700, 10, 1441792, -327694, 10, 1441792, 196598, 11, 0, -393216, 11, 1441792, -393214, 11, 1441792, -393212, 11, 1441792, -393209, 11, 1441792, -327697, 11, 1441792, -327684, 11, 1441792, -327682, 11, 1441792, 131081, 12, 0, 262148, 12, 0, -327710, 12, 1441792, -327700, 12, 1441792, -327694, 12, 1441792, 196601, 13, 0, 458756, 13, 0, 196598, 14, 0, 655372, 14, 0, -327710, 14, 1441792, -327706, 14, 1441792, -327702, 14, 1441792, -327692, 14, 1441792, -327688, 14, 1441792, -327684, 14, 1441792, 655364, 15, 0, -393216, 15, 1441792, 131081, 16, 0, 196603, 16, 0, 196600, 17, 0, 655372, 18, 0, 131081, 19, 0, 196603, 19, 0, 655364, 19, 0, 131072, 21, 0, 131081, 21, 0, 655365, 21, 0, 655372, 21, 0, 196603, 22, 0, 196606, 22, 0, 655366, 22, 0, 655369, 22, 0, 131072, 23, 0, 131074, 23, 0, 131078, 23, 0, -327701, 65506, 1441792, -327698, 65507, 1441792, -327696, 65507, 1441792, -327694, 65507, 1441792, -327690, 65507, 1441792, -327686, 65507, 1441792, -327682, 65507, 1441792, 196554, 65508, 0, 196558, 65508, 0, 196562, 65508, 0, 196566, 65508, 0, 196588, 65508, 0, 196569, 65509, 0, 196574, 65509, 0, 196579, 65509, 0, -327701, 65509, 1441792, -327696, 65509, 1441792, 720854, 65510, 0, 720858, 65510, 0, 720861, 65510, 0, 720865, 65510, 0, 720869, 65510, 0, -327722, 65510, 1441792, -327718, 65510, 1441792, -327715, 65510, 1441792, -327712, 65510, 1441792, -327710, 65510, 1441792, -327682, 65510, 1441792, 196572, 65511, 0, 196577, 65511, 0, 196581, 65511, 0, 196584, 65511, 0, 196586, 65511, 0, 196589, 65511, 0, 196593, 65511, 0, 196554, 65512, 0, -327722, 65512, 1441792, -327701, 65512, 1441792, -327698, 65512, 1441792, -327696, 65512, 1441792, 196595, 65513, 0, -327710, 65513, 1441792, -327684, 65513, 1441792, -327682, 65513, 1441792, 196586, 65514, 0, 196593, 65514, 0, 720869, 65514, 0, 327665, 65515, 1441792, -327701, 65515, 1441792, 196554, 65516, 0, 196578, 65516, 0, 196582, 65516, 0, 196583, 65516, 0, 196586, 65516, 0, -327722, 65516, 1441792, -327710, 65516, 1441792, -327696, 65516, 1441792, -327682, 65516, 1441792, 524273, 65517, 0, -327699, 65517, 1441792, 720869, 65518, 0, -327724, 65518, 1441792, -327721, 65518, 1441792, -327718, 65518, 1441792, -327715, 65518, 1441792, -327712, 65518, 1441792, -327710, 65518, 1441792, 196556, 65519, 0, 720881, 65519, 0, -327690, 65519, 1441792, -327686, 65519, 1441792, -327682, 65519, 1441792, 196574, 65520, 0, 196578, 65520, 0, 196585, 65520, 0, -327726, 65520, 1441792, -393216, 65521, 1441792, -393212, 65521, 1441792, -393208, 65521, 1441792, -327710, 65521, 1441792, -327706, 65521, 1441792, -327702, 65521, 1441792, -327699, 65521, 1441792, -327692, 65521, 1441792, 196558, 65522, 0, 196562, 65522, 0, 196566, 65522, 0, 196569, 65522, 0, 196572, 65522, 0, 720869, 65522, 0, 720881, 65522, 0, -327718, 65522, 1441792, -327694, 65522, 1441792, -393206, 65523, 1441792, -327726, 65523, 1441792, 131072, 65524, 0, 131075, 65524, 0, 196578, 65524, 0, 196581, 65524, 0, 196585, 65524, 0, 131077, 65525, 0, 196593, 65525, 0, 196597, 65525, 0, 196600, 65525, 0, 196604, 65525, 0, -327710, 65525, 1441792, -327694, 65525, 1441792, 196566, 65526, 0, 655376, 65526, 0, 720869, 65526, 0, 720881, 65526, 0, -393206, 65526, 1441792, -327730, 65526, 1441792, -327726, 65526, 1441792, -327722, 65526, 1441792, -327718, 65526, 1441792, -327714, 65526, 1441792, -327711, 65526, 1441792, 655373, 65527, 0, -393208, 65527, 1441792, 131072, 65528, 0, 131078, 65528, 0, 196592, 65528, 0, 196604, 65528, 0, 196606, 65528, 0, -327710, 65528, 1441792, 196555, 65529, 0, 196558, 65529, 0, 196562, 65529, 0, 196566, 65529, 0, 196569, 65529, 0, 196573, 65529, 0, 196577, 65529, 0, 196581, 65529, 0, 196585, 65529, 0, 196589, 65529, 0, 196594, 65529, 0, 196598, 65529, 0, 196602, 65529, 0, 720868, 65529, 0, 720872, 65529, 0, 720876, 65529, 0, 720880, 65529, 0, -327694, 65529, 1441792, 196593, 65530, 0, 655372, 65530, 0, 655377, 65530, 0, -393209, 65530, 1441792, -327730, 65530, 1441792, 720881, 65531, 0, -393216, 65531, 1441792, -393214, 65531, 1441792, -393211, 65531, 1441792, -393207, 65531, 1441792, -393205, 65531, 1441792, -393201, 65531, 1441792, -327710, 65531, 1441792, 196555, 65532, 0, 196566, 65532, 0, 196593, 65532, 0, 720866, 65532, 0, 131078, 65533, 0, 655375, 65533, 0, -393200, 65533, 1441792, -327694, 65533, 1441792, 196582, 65534, 0, 196593, 65534, 0, 196596, 65534, 0, 196600, 65534, 0, 196604, 65534, 0, 655372, 65534, 0, 720875, 65534, 0, 720878, 65534, 0, 720881, 65534, 0, -393216, 65534, 1441792, -327730, 65534, 1441792, -327722, 65534, 1441792, -327719, 65534, 1441792, -327716, 65534, 1441792, -327713, 65534, 1441792, -327710, 65534, 1441792, -327707, 65534, 1441792, -327703, 65534, 1441792, -327699, 65534, 1441792, -327695, 65534, 1441792, -327693, 65534, 1441792, -327689, 65534, 1441792, -327686, 65534, 1441792, -327683, 65534, 1441792, 131073, 65535, 0, 131076, 65535, 0, 196554, 65535, 0, 196575, 65535, 0, 196579, 65535, 0, -327718, 65535, 1441792 )
}
__meta__ = {
"_editor_clip_": 0,
"_editor_floor_": Vector3( 0, -6, 0 )
}

[node name="WallsEG" type="GridMap" parent="."]
mesh_library = ExtResource( 2 )
cell_size = Vector3( 0.5, 1, 0.5 )
collision_mask = 0
data = {
"cells": PoolIntArray( 65492, 0, 1048588, 65496, 0, 1441792, 65514, 0, 655371, 65516, 0, 2, 65518, 0, 0, 65522, 1, 1048579, 65526, 1, 2, 65530, 1, 3, 65534, 1, 1441801, 4, 2, 0, 6, 2, 2, 10, 2, 655367, 14, 2, 3, 65480, 2, 1048578, 65530, 3, 1441802, 65492, 4, 1048588, 65522, 5, 655363, 65524, 5, 11, 14, 6, 1441794, 65480, 6, 1048578, 65496, 6, 1441792, 65503, 6, 655370, 65505, 6, 655362, 65509, 6, 655362, 65513, 6, 655362, 65515, 6, 10, 65534, 6, 1048578, 65523, 7, 1441801, 6, 8, 1441792, 65492, 8, 1048588, 2, 10, 3, 6, 10, 1441794, 14, 10, 1441794, 65480, 10, 1441794, 65482, 10, 2, 65486, 10, 2, 65490, 10, 2, 65492, 10, 1441792, 65532, 10, 655371, 65534, 10, 1048582, 65492, 12, 1441794, 65493, 12, 655362, 65497, 12, 655362, 65501, 12, 655362, 65505, 12, 2, 65509, 12, 2, 65513, 12, 2, 65517, 12, 655362, 65521, 12, 655362, 65523, 12, 1048578, 2, 14, 1048578, 6, 14, 1048578, 14, 14, 1441794, 65534, 14, 1048578, 65523, 16, 1048578, 2, 18, 1048583, 6, 18, 1441795, 9, 18, 655369, 14, 18, 1441799, 65534, 18, 1048578, 6, 19, 1441792, 65523, 20, 1048578, 65534, 20, 1048576, 65524, 21, 655362, 65528, 21, 3, 14, 22, 1048578, 2, 23, 1441801, 14, 24, 0, 0, 25, 655362, 4, 25, 2, 8, 25, 655362, 12, 25, 2, 65528, 25, 655363, 65532, 25, 655362, 65512, 65504, 2, 65516, 65504, 2, 65520, 65504, 3, 65505, 65505, 655362, 65512, 65505, 1441792, 65480, 65506, 1048579, 65484, 65506, 2, 65488, 65506, 2, 65492, 65506, 2, 65496, 65506, 2, 65500, 65506, 2, 65505, 65506, 655375, 65510, 65506, 655362, 65512, 65507, 1048578, 65520, 65508, 655363, 65524, 65508, 3, 65512, 65509, 1048576, 65480, 65510, 1441794, 65484, 65510, 1048579, 65488, 65510, 2, 65492, 65510, 2, 65494, 65510, 0, 65524, 65510, 1441792, 65526, 65510, 2, 65530, 65510, 655362, 65534, 65510, 655362, 0, 65511, 1048576, 65512, 65511, 1048590, 0, 65512, 1048578, 65480, 65514, 1048578, 65484, 65514, 655363, 65488, 65514, 3, 65492, 65514, 1048579, 65496, 65514, 3, 65500, 65514, 1048579, 65504, 65514, 2, 65509, 65514, 655375, 65512, 65514, 655360, 65514, 65514, 655374, 65516, 65514, 655360, 65518, 65514, 3, 0, 65516, 1441795, 65504, 65516, 1048588, 65524, 65516, 1048579, 65528, 65516, 2, 65530, 65516, 0, 65532, 65516, 2, 65480, 65518, 1048578, 65488, 65518, 655363, 65492, 65518, 1441795, 65496, 65518, 655363, 65500, 65518, 1441795, 65518, 65518, 1048578, 65504, 65520, 1048590, 65524, 65520, 1048578, 2, 65522, 2, 6, 65522, 2, 10, 65522, 3, 65480, 65522, 1048578, 65518, 65522, 1048583, 65522, 65522, 2, 65526, 65522, 655362, 65530, 65522, 2, 65534, 65522, 655365, 65504, 65524, 1048588, 65534, 65524, 1441804, 2, 65526, 1441792, 10, 65526, 1048578, 65480, 65526, 1048583, 65484, 65526, 655362, 65488, 65526, 2, 65490, 65526, 11, 65498, 65526, 655371, 65501, 65526, 16, 65507, 65526, 16, 65513, 65526, 16, 65518, 65526, 1441795, 65523, 65527, 1048576, 65529, 65527, 1048576, 65534, 65527, 1441810, 2, 65528, 1441800, 65534, 65528, 1048590, 10, 65530, 1048578, 65480, 65530, 1048578, 65534, 65530, 0, 2, 65532, 1441795, 65483, 65532, 655369, 65488, 65532, 655362, 65492, 65532, 3, 65496, 65532, 1048579, 65500, 65532, 2, 65504, 65532, 2, 65508, 65532, 2, 65512, 65532, 2, 65516, 65532, 655362, 65518, 65532, 1441792, 65521, 65532, 655369, 65523, 65532, 655378, 65526, 65532, 5, 65529, 65532, 655385, 65530, 65532, 4, 65534, 65532, 1441798, 10, 65534, 1048578, 65480, 65534, 1048578, 65492, 65534, 1048576, 65496, 65534, 1441802, 65518, 65534, 1048578 )
}
__meta__ = {
"_editor_clip_": 0,
"_editor_floor_": Vector3( 0, 0, 0 )
}

[node name="FloorEG" type="GridMap" parent="WallsEG"]
transform = Transform( 1, 0, 0, 0, 1, 0, 0, 0, 1, 0.25, 0, 0.25 )
mesh_library = ExtResource( 1 )
cell_size = Vector3( 1, 1, 1 )
data = {
"cells": PoolIntArray( 0, 0, 1441794, 1, 0, 1441794, 2, 0, 1441794, 3, 0, 1441794, 4, 0, 1441794, 5, 0, 1441794, 6, 0, 1048578, 7, 0, 1048578, 8, 0, 1048578, 65514, 0, 1048578, 65515, 0, 1048578, 65516, 0, 1048578, 65517, 0, 1441794, 65518, 0, 1441794, 65519, 0, 1441794, 65520, 0, 1441794, 65521, 0, 1441794, 65522, 0, 1441794, 65523, 0, 1441794, 65524, 0, 1441794, 65525, 0, 1441794, 65526, 0, 1441794, 65527, 0, 1441794, 65528, 0, 1441794, 65529, 0, 1441794, 65530, 0, 1441794, 65531, 0, 1441794, 65532, 0, 1441794, 65533, 0, 1441794, 65534, 0, 1441794, 65535, 0, 1441794, 0, 1, 1441794, 1, 1, 1441794, 2, 1, 1441794, 3, 1, 1441794, 4, 1, 1441794, 5, 1, 2, 6, 1, 2, 7, 1, 1048578, 8, 1, 1048578, 65514, 1, 1048578, 65515, 1, 1048578, 65516, 1, 1048578, 65517, 1, 1441794, 65518, 1, 1441794, 65519, 1, 1441794, 65520, 1, 1441794, 65521, 1, 1441794, 65522, 1, 1441794, 65523, 1, 1441794, 65524, 1, 1441794, 65525, 1, 1441794, 65526, 1, 1441794, 65527, 1, 1441794, 65528, 1, 1441794, 65529, 1, 1441794, 65530, 1, 1441794, 65531, 1, 1441794, 65532, 1, 1441794, 65533, 1, 1441794, 65534, 1, 1441794, 65535, 1, 1441794, 131072, 1, 655373, 0, 2, 1441794, 1, 2, 1441794, 2, 2, 1441794, 3, 2, 1441794, 4, 2, 1441794, 5, 2, 2, 6, 2, 2, 65514, 2, 1048578, 65515, 2, 1048578, 65516, 2, 1048578, 65517, 2, 1441794, 65518, 2, 1441794, 65519, 2, 1441794, 65520, 2, 1441794, 65521, 2, 1441794, 65522, 2, 1441794, 65523, 2, 1441794, 65524, 2, 1441794, 65525, 2, 1441794, 65526, 2, 1441794, 65527, 2, 1441794, 65528, 2, 1441794, 65529, 2, 1441794, 65530, 2, 1441794, 65531, 2, 1441794, 65532, 2, 1441794, 65533, 2, 1441794, 65534, 2, 1441794, 65535, 2, 1441794, 0, 3, 1441794, 1, 3, 1441794, 2, 3, 1441794, 3, 3, 1441794, 4, 3, 1441794, 5, 3, 2, 6, 3, 2, 65514, 3, 1048578, 65515, 3, 1048578, 65516, 3, 1048578, 65517, 3, 1441794, 65518, 3, 1441794, 65519, 3, 1441794, 65520, 3, 1441794, 65521, 3, 1441794, 65522, 3, 1441794, 65523, 3, 1441794, 65524, 3, 1441794, 65525, 3, 1441794, 65526, 3, 1441794, 65527, 3, 1441794, 65528, 3, 1441794, 65529, 3, 1441794, 65530, 3, 1441794, 65531, 3, 1441794, 65532, 3, 1441794, 65533, 3, 1441794, 65534, 3, 1441794, 65535, 3, 1441794, 0, 4, 1441794, 1, 4, 1441794, 2, 4, 1441794, 3, 4, 1441794, 4, 4, 1441794, 5, 4, 2, 6, 4, 2, 65514, 4, 1048578, 65515, 4, 1048578, 65516, 4, 1048578, 65517, 4, 1441794, 65518, 4, 1441794, 65519, 4, 1441794, 65520, 4, 1441793, 65521, 4, 1441794, 65522, 4, 1441794, 65523, 4, 1441794, 65524, 4, 1048577, 65525, 4, 1441794, 65526, 4, 1441794, 65527, 4, 1441794, 65528, 4, 1441794, 65529, 4, 1441794, 65530, 4, 1441794, 65531, 4, 1441794, 65532, 4, 1441794, 65533, 4, 1441794, 65534, 4, 1441794, 65535, 4, 1441794, 1, 5, 1441794, 2, 5, 1441794, 3, 5, 1441794, 4, 5, 1441794, 5, 5, 2, 6, 5, 2, 65512, 5, 1048578, 65513, 5, 1048578, 65514, 5, 1048578, 65515, 5, 1048578, 65516, 5, 1048578, 65517, 5, 1441794, 65518, 5, 1441794, 65519, 5, 1441794, 65520, 5, 1441794, 65521, 5, 1441794, 65522, 5, 1441794, 65523, 5, 1441794, 65524, 5, 1441794, 65525, 5, 1441794, 65526, 5, 1441794, 65527, 5, 1441794, 65528, 5, 1441794, 65529, 5, 1441794, 65530, 5, 1441794, 65531, 5, 1441794, 65532, 5, 1441794, 65533, 5, 1441794, 65534, 5, 1441794, 1, 6, 1441794, 2, 6, 1441794, 3, 6, 1441794, 4, 6, 1441794, 5, 6, 2, 6, 6, 2, 65520, 6, 1048578, 65521, 6, 1048578, 65522, 6, 1048578, 65523, 6, 1048578, 65524, 6, 1048578, 65525, 6, 1048578, 65526, 6, 1048578, 65527, 6, 1048578, 65528, 6, 1048578, 65529, 6, 1441794, 65530, 6, 1441794, 65531, 6, 1441794, 65532, 6, 1441794, 65533, 6, 1441794, 65534, 6, 1441794, 1, 7, 1441794, 2, 7, 655360, 3, 7, 1441794, 4, 7, 1441794, 5, 7, 2, 6, 7, 2, 65520, 7, 1048578, 65521, 7, 1048578, 65522, 7, 1048578, 65523, 7, 1048578, 65524, 7, 1048578, 65525, 7, 1048578, 65526, 7, 1048578, 65527, 7, 1048578, 65528, 7, 1048578, 65529, 7, 1441794, 65530, 7, 1441794, 65531, 7, 1441794, 65532, 7, 1441794, 65533, 7, 1441794, 65534, 7, 1441794, 1, 8, 1441794, 2, 8, 1441794, 3, 8, 1441794, 4, 8, 1441794, 5, 8, 2, 6, 8, 2, 65529, 8, 1441794, 65530, 8, 1441794, 65531, 8, 1441794, 65532, 8, 1441794, 65533, 8, 1441794, 65534, 8, 1441794, 1, 9, 1441794, 2, 9, 1441794, 3, 9, 1441794, 4, 9, 1441794, 5, 9, 2, 6, 9, 2, 65529, 9, 1441794, 65530, 9, 1441794, 65531, 9, 1441794, 65532, 9, 1441794, 65533, 9, 1441794, 65534, 9, 1441794, 0, 10, 1441794, 1, 10, 1441794, 2, 10, 1441794, 3, 10, 1441794, 4, 10, 1441794, 5, 10, 2, 6, 10, 2, 65529, 10, 1441794, 65530, 10, 1441794, 65531, 10, 1441794, 65532, 10, 1441794, 65533, 10, 1441794, 65534, 10, 1441794, 65535, 10, 1441794, 0, 11, 1441794, 1, 11, 1441794, 2, 11, 1441794, 3, 11, 1441794, 4, 11, 1441794, 5, 11, 2, 6, 11, 2, 65532, 11, 1441794, 65533, 11, 1441794, 65534, 11, 1441794, 65535, 11, 1441794, 0, 12, 1441794, 1, 12, 1441794, 2, 12, 1441794, 3, 12, 1441794, 4, 12, 1441794, 5, 12, 2, 6, 12, 2, 65532, 12, 1441794, 65533, 12, 1441794, 65534, 12, 1441794, 65535, 12, 1441794, 65516, 65520, 1048578, 65517, 65520, 1048578, 65518, 65520, 1048578, 65519, 65520, 1048578, 65520, 65520, 1048578, 65521, 65520, 1048578, 65522, 65520, 1048578, 65523, 65520, 1048578, 65524, 65520, 1048578, 65525, 65520, 1048578, 65526, 65520, 1048578, 65527, 65520, 2, 65528, 65520, 1048578, 65529, 65520, 1048578, 65530, 65520, 1048578, 65531, 65520, 1048578, 65532, 65520, 1048578, 65533, 65520, 1048578, 65534, 65520, 1048578, 65535, 65520, 1048578, 65508, 65521, 2, 65509, 65521, 2, 65510, 65521, 2, 65511, 65521, 2, 65512, 65521, 2, 65513, 65521, 2, 65514, 65521, 2, 65515, 65521, 2, 65516, 65521, 2, 65517, 65521, 2, 65518, 65521, 1048578, 65519, 65521, 1048578, 65520, 65521, 1048578, 65521, 65521, 1048578, 65522, 65521, 1048578, 65523, 65521, 1048578, 65524, 65521, 1048578, 65525, 65521, 1048578, 65526, 65521, 1048578, 65527, 65521, 2, 65528, 65521, 1048578, 65529, 65521, 1048578, 65530, 65521, 1048578, 65531, 65521, 1048578, 65532, 65521, 1048578, 65533, 65521, 1048578, 65534, 65521, 1048578, 65535, 65521, 1048578, 65508, 65522, 2, 65509, 65522, 2, 65510, 65522, 2, 65511, 65522, 2, 65512, 65522, 2, 65513, 65522, 2, 65514, 65522, 2, 65515, 65522, 2, 65516, 65522, 2, 65517, 65522, 2, 65518, 65522, 1048578, 65519, 65522, 1048578, 65520, 65522, 1048578, 65521, 65522, 1048578, 65522, 65522, 1048578, 65523, 65522, 1048578, 65524, 65522, 1048578, 65525, 65522, 1048578, 65526, 65522, 1048578, 65527, 65522, 2, 65528, 65522, 2, 65529, 65522, 1048578, 65530, 65522, 1048578, 65531, 65522, 1048578, 65532, 65522, 1048578, 65533, 65522, 1048578, 65534, 65522, 1048578, 65535, 65522, 1048578, 65508, 65523, 2, 65509, 65523, 2, 65510, 65523, 2, 65511, 65523, 2, 65512, 65523, 2, 65513, 65523, 2, 65514, 65523, 2, 65515, 65523, 2, 65516, 65523, 2, 65517, 65523, 2, 65518, 65523, 1048578, 65519, 65523, 1048578, 65520, 65523, 1048578, 65521, 65523, 1048578, 65522, 65523, 1048578, 65523, 65523, 1048578, 65524, 65523, 1048578, 65525, 65523, 1048578, 65526, 65523, 1048578, 65527, 65523, 1048578, 65528, 65523, 1048578, 65529, 65523, 1048578, 65508, 65524, 2, 65509, 65524, 2, 65510, 65524, 2, 65511, 65524, 2, 65512, 65524, 2, 65513, 65524, 2, 65514, 65524, 2, 65515, 65524, 2, 65516, 65524, 2, 65517, 65524, 2, 65518, 65524, 1048578, 65519, 65524, 1048578, 65520, 65524, 1048578, 65521, 65524, 1048578, 65522, 65524, 1048578, 65523, 65524, 1048578, 65524, 65524, 1048578, 65525, 65524, 1048578, 65526, 65524, 1048578, 65527, 65524, 1048578, 65528, 65524, 1048578, 65529, 65524, 1048578, -65542, 65524, 1048577, 65508, 65525, 1048578, 65509, 65525, 1048578, 65510, 65525, 1048578, 65511, 65525, 1048578, 65512, 65525, 1048578, 65513, 65525, 1048578, 65514, 65525, 1048578, 65515, 65525, 1048578, 65516, 65525, 1048578, 65517, 65525, 1048578, 65518, 65525, 1048578, 65519, 65525, 1048578, 65520, 65525, 1048578, 65521, 65525, 1048578, 65522, 65525, 1048578, 65523, 65525, 1048578, 65524, 65525, 1048578, 65525, 65525, 1048578, 65526, 65525, 1048578, 65527, 65525, 1048578, 65528, 65525, 1048578, 65529, 65525, 1048578, 0, 65526, 1048578, 65508, 65526, 1048578, 65509, 65526, 1048578, 65510, 65526, 1048578, 65511, 65526, 1048578, 65512, 65526, 1048578, 65513, 65526, 1048578, 65514, 65526, 1048578, 65515, 65526, 1048578, 65516, 65526, 1048578, 65517, 65526, 1048578, 65518, 65526, 1048578, 65519, 65526, 1048578, 65520, 65526, 1048578, 65521, 65526, 1048578, 65522, 65526, 1048578, 65523, 65526, 1048578, 65524, 65526, 1048578, 65525, 65526, 1048578, 65526, 65526, 1048578, 65530, 65526, 1048578, 65531, 65526, 1048578, 65532, 65526, 1048578, 65533, 65526, 1048578, 65534, 65526, 1048578, 65535, 65526, 1048578, 0, 65527, 1048578, 1, 65527, 1048578, 2, 65527, 1048578, 3, 65527, 1048578, 4, 65527, 1048578, 5, 65527, 1048578, 65508, 65527, 1048578, 65509, 65527, 1048578, 65510, 65527, 1048578, 65511, 65527, 1048578, 65512, 65527, 1048578, 65513, 65527, 1048578, 65514, 65527, 1048578, 65515, 65527, 1048578, 65516, 65527, 1048578, 65517, 65527, 1048578, 65518, 65527, 1048578, 65519, 65527, 1048578, 65520, 65527, 1048578, 65521, 65527, 1048578, 65522, 65527, 1048578, 65523, 65527, 1048578, 65524, 65527, 1048578, 65525, 65527, 1048578, 65526, 65527, 1048578, 65528, 65527, 655361, 65530, 65527, 1048578, 65531, 65527, 1048578, 65532, 65527, 1048578, 65533, 65527, 1048578, 65534, 65527, 1048578, 65535, 65527, 1048578, 0, 65528, 1048578, 1, 65528, 1048578, 2, 65528, 1048578, 3, 65528, 1048578, 4, 65528, 1048578, 5, 65528, 1048578, 65508, 65528, 1048578, 65509, 65528, 1048578, 65510, 65528, 1048578, 65511, 65528, 1048578, 65512, 65528, 1048578, 65513, 65528, 1048578, 65514, 65528, 1048578, 65515, 65528, 1048578, 65516, 65528, 1048578, 65517, 65528, 1048578, 65518, 65528, 1048578, 65519, 65528, 1048578, 65520, 65528, 1048578, 65521, 65528, 1048578, 65522, 65528, 1048578, 65523, 65528, 1048578, 65524, 65528, 1048578, 65525, 65528, 1048578, 65526, 65528, 1048578, 65530, 65528, 1048578, 65531, 65528, 1048578, 65532, 65528, 1048578, 65533, 65528, 1048578, 65534, 65528, 1048578, 65535, 65528, 1048578, 0, 65529, 1441794, 1, 65529, 1441794, 2, 65529, 1441794, 3, 65529, 1441794, 4, 65529, 1441794, 5, 65529, 1441794, 65508, 65529, 1048578, 65509, 65529, 1048578, 65510, 65529, 1048578, 65511, 65529, 1048578, 65512, 65529, 1048578, 65513, 65529, 1048578, 65514, 65529, 1048578, 65515, 65529, 1048578, 65516, 65529, 1048578, 65517, 65529, 1441794, 65518, 65529, 1441794, 65519, 65529, 1441794, 65520, 65529, 1441794, 65521, 65529, 1441794, 65522, 65529, 1441794, 65523, 65529, 1441794, 65524, 65529, 1441794, 65525, 65529, 1441794, 65526, 65529, 1441794, 65527, 65529, 1441794, 65528, 65529, 1441794, 65529, 65529, 1441794, 65530, 65529, 1441794, 65531, 65529, 1441794, 65532, 65529, 1441794, 65533, 65529, 1441794, 65534, 65529, 1441794, 65535, 65529, 1441794, 0, 65530, 1441794, 1, 65530, 1441794, 2, 65530, 1441794, 3, 65530, 1441794, 4, 65530, 1441794, 5, 65530, 1441794, 65508, 65530, 1048578, 65509, 65530, 1048578, 65510, 65530, 1048578, 65511, 65530, 1048578, 65512, 65530, 1048578, 65513, 65530, 1048578, 65514, 65530, 1048578, 65515, 65530, 1048578, 65516, 65530, 1048578, 65517, 65530, 1441794, 65518, 65530, 1441794, 65519, 65530, 1441794, 65520, 65530, 1441794, 65521, 65530, 1441794, 65522, 65530, 1441794, 65523, 65530, 1441794, 65524, 65530, 1441794, 65525, 65530, 1441794, 65526, 65530, 1441794, 65527, 65530, 1441794, 65528, 65530, 1441794, 65529, 65530, 1441794, 65530, 65530, 1441794, 65531, 65530, 1441794, 65532, 65530, 1441794, 65533, 65530, 1441794, 65534, 65530, 1441794, 65535, 65530, 1441794, 0, 65531, 1441794, 1, 65531, 1441794, 2, 65531, 1441794, 3, 65531, 1441794, 4, 65531, 1441794, 5, 65531, 1441794, 65508, 65531, 1048578, 65509, 65531, 1048578, 65510, 65531, 1048578, 65511, 65531, 1048578, 65512, 65531, 1048578, 65513, 65531, 1048578, 65514, 65531, 1048578, 65515, 65531, 1048578, 65516, 65531, 1048578, 65517, 65531, 1441794, 65518, 65531, 1441794, 65519, 65531, 1441794, 65520, 65531, 1441794, 65521, 65531, 1441794, 65522, 65531, 1441794, 65523, 65531, 1441794, 65524, 65531, 1441794, 65525, 65531, 1441794, 65526, 65531, 1441794, 65527, 65531, 1441794, 65528, 65531, 1441794, 65529, 65531, 1441794, 65530, 65531, 1441794, 65531, 65531, 1441794, 65532, 65531, 1441794, 65533, 65531, 1441794, 65534, 65531, 1441794, 65535, 65531, 1441794, 0, 65532, 1441794, 1, 65532, 1441794, 2, 65532, 1441794, 3, 65532, 1441794, 4, 65532, 1441794, 5, 65532, 1441794, 6, 65532, 1048578, 7, 65532, 1048578, 8, 65532, 1048578, 65508, 65532, 1048578, 65509, 65532, 1048578, 65510, 65532, 1048578, 65511, 65532, 1048578, 65512, 65532, 1048578, 65513, 65532, 1048578, 65514, 65532, 1048578, 65515, 65532, 1048578, 65516, 65532, 1048578, 65517, 65532, 1441794, 65518, 65532, 1441794, 65519, 65532, 1441794, 65520, 65532, 1441794, 65521, 65532, 1441794, 65522, 65532, 1441794, 65523, 65532, 1441794, 65524, 65532, 1441794, 65525, 65532, 1441794, 65526, 65532, 1441794, 65527, 65532, 1441794, 65528, 65532, 1441794, 65529, 65532, 1441794, 65530, 65532, 1441794, 65531, 65532, 1441794, 65532, 65532, 1441794, 65533, 65532, 1441794, 65534, 65532, 1441794, 65535, 65532, 1441794, 0, 65533, 1441794, 1, 65533, 1441794, 2, 65533, 1441794, 3, 65533, 1441794, 4, 65533, 1441794, 5, 65533, 1441794, 6, 65533, 1048578, 7, 65533, 1048578, 8, 65533, 1048578, 65508, 65533, 1048578, 65509, 65533, 1048578, 65510, 65533, 1048578, 65511, 65533, 1048578, 65512, 65533, 1048578, 65513, 65533, 1048578, 65514, 65533, 1048578, 65515, 65533, 1048578, 65516, 65533, 1048578, 65517, 65533, 1441794, 65518, 65533, 1441794, 65519, 65533, 1441794, 65520, 65533, 1441794, 65521, 65533, 1441794, 65522, 65533, 1441794, 65523, 65533, 1441794, 65524, 65533, 1441794, 65525, 65533, 1441794, 65526, 65533, 1441794, 65527, 65533, 1441794, 65528, 65533, 1441794, 65529, 65533, 1441794, 65530, 65533, 1441794, 65531, 65533, 1441794, 65532, 65533, 1441794, 65533, 65533, 1441794, 65534, 65533, 1441794, 65535, 65533, 1441794, 0, 65534, 1441794, 1, 65534, 1441794, 2, 65534, 1441794, 3, 65534, 1441794, 4, 65534, 1441794, 5, 65534, 1441794, 6, 65534, 1048578, 7, 65534, 1048578, 8, 65534, 1048578, 65514, 65534, 1048578, 65515, 65534, 1048578, 65516, 65534, 1048578, 65517, 65534, 1441794, 65518, 65534, 1441794, 65519, 65534, 1441794, 65520, 65534, 1441794, 65521, 65534, 1441794, 65522, 65534, 1441794, 65523, 65534, 1441794, 65525, 65534, 1441792, 65527, 65534, 1441794, 65528, 65534, 1441794, 65529, 65534, 1441794, 65530, 65534, 1441794, 65531, 65534, 1441794, 65532, 65534, 1441794, 65533, 65534, 1441794, 65534, 65534, 1441794, 65535, 65534, 1441794, 0, 65535, 1441794, 1, 65535, 1441794, 2, 65535, 1441794, 3, 65535, 1441794, 4, 65535, 1441794, 5, 65535, 1441794, 6, 65535, 1048578, 7, 65535, 1048578, 8, 65535, 1048578, 65514, 65535, 1048578, 65515, 65535, 1048578, 65516, 65535, 1048578, 65517, 65535, 1441794, 65518, 65535, 1441794, 65519, 65535, 1441794, 65520, 65535, 1441794, 65521, 65535, 1441794, 65522, 65535, 1441794, 65523, 65535, 1441794, 65524, 65535, 1441794, 65527, 65535, 1441794, 65528, 65535, 1441794, 65529, 65535, 1441794, 65530, 65535, 1441794, 65531, 65535, 1441794, 65532, 65535, 1441794, 65533, 65535, 1441794, 65534, 65535, 1441794, 65535, 65535, 1441794 )
}
script = ExtResource( 11 )
__meta__ = {
"_editor_clip_": 0,
"_editor_floor_": Vector3( 0, 3, 0 )
}

[node name="Objects" type="GridMap" parent="WallsEG"]
transform = Transform( 1, 0, 0, 0, 1, 0, 0, 0, 1, 0.125, -0.16, 0.125 )
mesh_library = ExtResource( 15 )
cell_size = Vector3( 0.25, 0.25, 0.25 )
data = {
"cells": PoolIntArray( 327638, 1, 46, 262157, 23, 1048622, 327603, 23, 655406, 327675, 31, 1441838, 327655, 32, 1048622, 262171, 41, 1441838, 327610, 65477, 46, 327569, 65480, 1048622, 327650, 65481, 46, 327577, 65488, 1048622, 327588, 65501, 46, 327643, 65503, 1441838, 327569, 65522, 1048622, 327593, 65529, 1048622, 327609, 65529, 46 )
}
script = ExtResource( 14 )
__meta__ = {
"_editor_clip_": 0,
"_editor_floor_": Vector3( 0, 4, 0 )
}
torch = ExtResource( 4 )

[node name="Checkpoint" parent="WallsEG" instance=ExtResource( 5 )]
transform = Transform( 1, 0, 0, 0, 1, 0, 0, 0, 1, 25.6597, 0.595571, -0.201259 )
targets = [ NodePath("../../Target_1"), NodePath("../../Target_2"), NodePath("../../Target_3") ]
activators = [ NodePath("../Scaff_1"), NodePath("../Scaff_2") ]

[node name="Scaff_1" type="GridMap" parent="WallsEG"]
mesh_library = ExtResource( 10 )
cell_size = Vector3( 0.5, 1, 0.5 )
data = {
"cells": PoolIntArray( -65590, 2, 1441796, -65587, 3, 1048594, 13, 4, 1441796, -65585, 4, 655393, -65589, 5, 1048591, -65591, 6, 1441812, -65585, 6, 1048605, -51, 6, 1048609, -65589, 7, 1441807, 13, 8, 1441796, -65591, 9, 1441811, -65589, 9, 1441807, 13, 12, 1441796, 13, 16, 1441796, -65590, 65534, 1441796 )
}
__meta__ = {
"_editor_clip_": 0,
"_editor_floor_": Vector3( 0, 0, 0 )
}

[node name="Scaff_2" type="GridMap" parent="WallsEG"]
mesh_library = ExtResource( 10 )
cell_size = Vector3( 0.5, 1, 0.5 )
data = {
"cells": PoolIntArray( 65485, 2, 655379, 196553, 2, 655385, 196555, 2, 655385, 196559, 2, 655385, 196562, 3, 655369, 65485, 4, 19, 196553, 4, 25, 196555, 4, 25, 196559, 4, 655381, 131023, 6, 33, 65485, 8, 1441825, 65487, 8, 1048605, -65585, 8, 1441807, 196581, 65516, 1441801, 65509, 65520, 1441796, 196581, 65524, 1441801 )
}
__meta__ = {
"_editor_clip_": 0,
"_editor_floor_": Vector3( 0, 0, 0 )
}

[node name="DirectionalLight" type="DirectionalLight" parent="."]
transform = Transform( 0.889576, -0.000701595, 0.456787, -0.456787, -0.00136633, 0.889575, 0, -0.999999, -0.00153593, -12.9817, 4.31441, 0 )
light_energy = 2.202
light_indirect_energy = 6.549
light_specular = 0.315
editor_only = true
directional_shadow_mode = 1

[node name="Effects" type="CanvasLayer" parent="."]
visible = false

[node name="_Noise" type="ColorRect" parent="Effects"]
material = SubResource( 8 )
anchor_right = 1.0
anchor_bottom = 1.0
color = Color( 1, 1, 1, 0 )

[node name="Win" type="ColorRect" parent="Effects"]
modulate = Color( 1, 1, 1, 0 )
anchor_right = 1.0
anchor_bottom = 1.0
mouse_filter = 2
color = Color( 1, 1, 1, 0 )

[node name="Label" type="Label" parent="Effects/Win"]
anchor_right = 1.0
anchor_bottom = 1.0
custom_colors/font_color = Color( 1, 0, 0, 1 )
custom_fonts/font = ExtResource( 9 )
text = "Congratulations!

You escaped.

Good bye."
align = 1
valign = 1

[node name="AnimationPlayer" type="AnimationPlayer" parent="Effects/Win"]
anims/RESET = SubResource( 9 )
anims/Win = SubResource( 10 )

[node name="IngameMenu" parent="." instance=ExtResource( 12 )]
visible = false
sub = NodePath("../Settings")

[node name="Settings" parent="." instance=ExtResource( 13 )]
pause_mode = 2
visible = false

[node name="Player" parent="." groups=["Player"] instance=ExtResource( 3 )]
transform = Transform( 1, 0, 0, 0, 1, 0, 0, 0, 1, 1.76413, 2.63101, 12.5224 )

[connection signal="last_target_reached" from="WallsEG/Checkpoint" to="." method="_on_Checkpoint_last_target_reached"]
