[gd_scene load_steps=3 format=2]

[ext_resource path="res://assets/3d/Waypoint.meshlib" type="MeshLibrary" id=1]
[ext_resource path="res://objects/WaypointGrid.gd" type="Script" id=2]

[node name="Waypoints" type="GridMap"]
transform = Transform( 1, 0, 0, 0, 1, 0, 0, 0, 1, 0.25, 0, 0.25 )
mesh_library = ExtResource( 1 )
cell_size = Vector3( 0.5, 0.25, 0.5 )
collision_layer = 0
collision_mask = 0
script = ExtResource( 2 )
__meta__ = {
"_editor_clip_": 0,
"_editor_floor_": Vector3( 0, 2, 0 )
}
