[gd_scene load_steps=3 format=2]

[sub_resource type="SphereMesh" id=1]
radius = 0.125
height = 0.25
radial_segments = 8
rings = 4

[sub_resource type="SpatialMaterial" id=2]
flags_transparent = true
albedo_color = Color( 1, 0, 0, 0.501961 )

[node name="Spatial" type="Spatial"]

[node name="Waypoint" type="StaticBody" parent="."]

[node name="MeshInstance" type="MeshInstance" parent="Waypoint"]
mesh = SubResource( 1 )
material/0 = SubResource( 2 )
